<?xml version="1.0" encoding="UTF-8"?>
<svg id="svg3171" width="96" height="46" version="1.1" xmlns="http://www.w3.org/2000/svg" xmlns:cc="http://creativecommons.org/ns#" xmlns:dc="http://purl.org/dc/elements/1.1/" xmlns:rdf="http://www.w3.org/1999/02/22-rdf-syntax-ns#" xmlns:xlink="http://www.w3.org/1999/xlink">
	<defs id="defs3173">
		<style id="current-color-scheme" type="text/css">.ColorScheme-Background { color:#FF0000; }</style>
		<style id="velours" type="text/css">.body {
				opacity: 1;
				fill: currentColor;
			}
			.mask {
				fill: #000000 !important;
				opacity: 1 !important;
			}
			.group-spacer { opacity: 0 !important; }
			.hint { fill: #00CC00; }</style>
	</defs>
	<metadata id="metadata7">
		<rdf:RDF>
			<cc:Work rdf:about="">
				<dc:format>image/svg+xml</dc:format>
				<dc:type rdf:resource="http://purl.org/dc/dcmitype/StillImage"/>
				<dc:title/>
				<dc:creator>
					<cc:Agent>
						<dc:title>obnosim</dc:title>
					</cc:Agent>
				</dc:creator>
				<cc:license rdf:resource="http://creativecommons.org/licenses/by-sa/3.0/"/>
			</cc:Work>
			<cc:License rdf:about="http://creativecommons.org/licenses/by-sa/3.0/">
				<cc:permits rdf:resource="http://creativecommons.org/ns#Reproduction"/>
				<cc:permits rdf:resource="http://creativecommons.org/ns#Distribution"/>
				<cc:requires rdf:resource="http://creativecommons.org/ns#Notice"/>
				<cc:requires rdf:resource="http://creativecommons.org/ns#Attribution"/>
				<cc:permits rdf:resource="http://creativecommons.org/ns#DerivativeWorks"/>
				<cc:requires rdf:resource="http://creativecommons.org/ns#ShareAlike"/>
			</cc:License>
		</rdf:RDF>
	</metadata>
	<rect id="hint-overlay-tile-horizontal" class="hint" x="-52" y="62" width="5" height="5"/>
	<rect id="hint-overlay-tile-vertical" class="hint" x="-57" y="67" width="5" height="5"/>
	<rect id="hint-compose-over-border" class="hint" x="48" y="-27" width="5" height="5"/>
	<rect id="center" class="ColorScheme-Background" x="58" y="7" width="30" height="30" style="fill:currentColor;opacity:1"/>
	<rect id="mask-center" class="body mask" x="8" y="7" width="30" height="30"/>
	<g id="mask-topleft" transform="translate(3 -6)">
		<path class="body mask" d="m0 13c0-2.77 2.23-5 5-5v5h-5z"/>
	</g>
	<g id="mask-topright" transform="translate(3 -6)">
		<path class="body mask" d="m40 13c0-2.77-2.23-5-5-5v5h5z"/>
	</g>
	<g id="mask-bottomright" transform="translate(3 -6)">
		<path class="body mask" d="m40 43c0 2.77-2.23 5-5 5v-5h5z"/>
	</g>
	<g id="mask-bottomleft" transform="translate(3 -6)">
		<path class="body mask" d="m0 43c0 2.77 2.23 5 5 5v-5h-5z"/>
	</g>
	<g id="mask-left" transform="translate(3 -6)">
		<rect class="body mask" y="13" width="5" height="30"/>
	</g>
	<g id="mask-bottom" transform="translate(3 -6)">
		<rect class="body mask" x="5" y="43" width="30" height="5"/>
	</g>
	<g id="mask-right" transform="translate(3 -6)">
		<rect class="body mask" x="35" y="13" width="5" height="30"/>
	</g>
	<g id="mask-top" transform="translate(3 -6)">
		<rect class="body mask" x="5" y="8" width="30" height="5"/>
	</g>
	<rect id="hint-top-margin" class="hint" transform="rotate(90)" x="2" y="-25" width="2" height="4"/>
	<rect id="hint-bottom-margin" class="hint" transform="rotate(90)" x="40" y="-25" width="2" height="4"/>
	<rect id="hint-left-margin" class="hint" x="3" y="20" width="2" height="4"/>
	<rect id="hint-right-margin" class="hint" x="41" y="20" width="2" height="4"/>
	<image id="overlay" x="-57" y="62" width="200" height="200" xlink:href="data:image/png;base64,iVBORw0KGgoAAAANSUhEUgAAAMgAAADICAYAAACtWK6eAAAABHNCSVQICAgIfAhkiAAAIABJREFU eJyM/dtyYzvORomCkg+56u/3f9GOXSvTtsR9IQxgEFJWtCIy0pbn5AEEcfgAgmvvvSLiEhEfEfF7 rbX33peIuK61vvfebxFxi4gVEWutdePvEXHPfzz/tff+z1rrvxERe++11tr581XP3vX+JSLeIuJP /n+PiJ3/rmutn733R46B9y5rrS/3kfPg+RrzWuu+976utW48n+/z+3tE/HjeOdcfxjPafEu6XCI/ 2cdb/nrJfv9ozjHoAA0utDXaKHrnc/S9c3w71+Etx/auMX1ExNda65790WZkW6yhafIZEd+jzy2a bObg9rLvmmN+3nJef7Lti/52HbTeEfG51vqd7W7Gmc9c853b+P4NGmhNi1eSD9/13prrD+0ZmMbJ /9e11p9LEiRycB9778+11p2X11o/+cx+tLN5/k6n+befZNb/7r2v+dxSxzD2LSLe11o/uYgboqmf OdhbvveW731poT60MBB4RcRnjved/0Xwlb/zDnN6z3lvGCyawRnjTX3sbOstx/iTGxda3CLiQ5uD fqDHPRf0LoZBaLDR9lrrO8dzyfW451yY78/e+1eO+zftZX9baxg53itrmf3+sL7RgmWzcXMMOzfS Lcd2S7rcNM6dfPEneeA9+6Wdbxif+cRDMEJnaPYm+t0ZuzZWbf4Unpdo3oQm8E7xoehfm2Pv/Ske hVYREV8QqyRqPrhi7C4+krAQp6QzRM/vPqIZHUJENHMxcJjznm2UNoCp1PcKSe/s5139fDM2axQt 6I7HJmJeb/FgDMaItintKAHA3C9q31L76qEmbX5EhyWamc41hmyLdlY8Nv6fnPMf/a027wsN/T7o cNPf0MgwxuXF797AbMib6H3J8XwNvkEqI+E/0PCiH9r4rnVGsMy1ttaBpmiIq+hIv080ob9ooULb xRfarF5nWza1QVBRVjkf0QzE4rIYFw3omgv9/WKQH/HQDncYPAdWRIJ4OflDcmnzWXL9RJsJbyKa JfCO3kxv0RvlLs3gBXnPdj8CyfG8aB/RplOZHeqXDXjTfIuBVpsMSERMGRjzpvbu4+e37PvrBe2P zaDxfnpNWLfsi/nS9o6UntpM0NjzwHwpxs5+7tFWgMdgM87jfoNpoWuc/IMwQiMh8DDH0K6TseHV rXcQxB/RZiTrdawzQk9jaDWkP7BpfvIPTxPPTpAKaz3sTb67SAvgJ1yjNyCq7kJ/lgy71T+/v2X7 SO97yHSTRMAUuqPq98PsuMeD6TGHMK9qvHr3TzKP7XYI95V/Z/6o9sWYILoWmM+FfqDlWuuQnP6e dyIXOueN1N577185txIYe+9/ZEJEzvlqOiVtbqxtjv0r2/8RQ5v5VtLyTVrhorF/Z3uXLf8kaTY3 LWt/3w/zaImupQlznJiFV3gqNwdm29tok83EhmKM13yXtWVtPuPFJ8f1uTBptaA4wkFnWiAYF9Vm CYA5Yslvc8jPHlIkJ/mlPm0SsYI3Pc/OZ4PZP7qsU6JUv/n7L0mfel7MfBvfYUJaZV+zT0zJOSb7 LkhxgAxAjCcz1gIjP9doUxBmwJS85T/AhdImg1Zrtdm2tAbl4L4wL6DN+xBufP9kXk6NbH7I39/z TwYZMLXML/Y/ERaz7RUPn+4PWixakNDOe9IZ6wNwiU1+WCqiKT4OAvcSET9LD5sR7hoog77GAx2x Wl25kGud6vEDZlztk2Bq0a59BNu1drSuZvK/LMDc2Lz3zZxEXGz+smenCWApWEQ6zb258YoB+Tn/ BBPATK98qKKPGNL0Kfs5v8eHMpJ1zCFOpHGtc9NgfmKy3qJRu/saggxmybkZuVwh38HzSUY7fNMX QtWmjB3wt2iE6feL9Tv8Ra0BvGsfjrFMX8g8eVunqf7kE61UJ3/GTrPjbYcIpsFOPextD34M+pAI PM9Cvnj+Gg+btIgDAUVkt1GOlTUADGYJDUGioVw2Zf75YEg2GnO46F9BqSL+k3TWWA7HX8Igov2X iDb37Lu8R/slFg6sHRIvon2J6cd5zsz1yR/T3Nk07r/W0WNLGrHpGAPrMm3+kvTRELppYeCgYG8z rdbbm/djrfUb2o6NhW+JkMDns/ZBMJmXfpb+8KaBQdzCx6e0MiHzb0Z1djSiwobB6Q+Ipg0zAQHa NXMvvcsk7+tZcrFQmEP3F8RFEl/iWd2b0VC5jhNENLMicWDA0rzaCCV10SiMb0hRhNHUThGtUbw5 as5qoxgtxwSKBm0j2nyzwJimzhGT0LxC3yH1LQhMT/tDE4jguwIDNCeY9LLSVIpG+ZD0rDG88T36 gYYWoNASE/lwzqMFSykKD/ISESyydzkdg7uXTZkb4p5/K5UpqYRzf8l3cbC9a3Eii1lD6n6o9Vu2 8a1NupJo9+wHh/4uIsXe+2M35l9mk9qwhgHZIb4CQ+GToXWw0wvWXelcjs1xER2KiVlwSbsbdN4P xxOfCkFiEAMwAmf3LdsAjYI+P3GiS47jEId5i4gCLSJ9pXyO+AgOd6FKo00+ZVZGO8eFkEXEP3oP Z9ufosVqf40Ym2Md34wlWtrfs//veAg0I2/Q8StOv/ojO/2OB/87dhJ773URYS+5iLxUzqd+vufC YnrAwOUAitm2TY6IDqjpbwxmJQFhhoVUi5Yo10im3adzjBnxE+1sHVIvCcP3BgGMIv0kY/4Dg8ik QyPOqDzC4pJzv+RGfBMj43P8xMMM+IpmTJze2kTRUvE92wcB88J+0nduSCQfmwhal6mh+UcyDybH ba31Z52BWp6lTdpnjK8+dpTtR4bW/nfSb0dr5Av00ztvblO04YPwIPjIBkII2u9AyJfJtxupndo3 6IfNctkPdAcH7R4R3ylxsWuXiE8UduL0H7tt3NBE7/FY6AsLGY0Q3DRJq+xXiI7Hx+ef6PiAfSRP GLQnNDakN+YAqhqp/G9KdUef7RMZ3mSujmlAE5ujeyfkLMYtyS7GrWyBaC1YgkISFYl35V+cZisC Y0vgVbpGtOAgsn1JSVs+AXyh9cFhv8EfZkqtXcRDa00TEwviTZocQYaWwdTF77vmWD7QzF6D7PNt n5uSTWVk6k3fgYQ5as4aoG0KwZ1MFWrUTrvzW3jZu4933vOdL7X7mcQ5nGuYhM2XPxPAYhK/94l4 vCfDAPMZosNENLqCPT2j4oXcQBwWcp0BPQfNGN81HhHu9zHPvwXCiPbTHkzPpr6OcRwO8mzbn91+ D0LigNxDGQzWJGPNJkjCeN+S/p/RDm75dhqbUbrKhUOqS6u88rE+IgXPoBnPE+D7nf07mHnPv9He zFcD7auAY7QvY1BpOuoR8uNs9tihmVAjSMnf8H4P9EAC8tmbTAI7W5VsN4jOYs0F33Ocoz1DrjDa WzQ8XVCn2q9INAQSsSypIKppY1RqzgG6/rMe+Wn/5ELzQRhAM4TRAYTMjzQ1ktfOufv/iPbdnjZz tDn3pnEVgsiz64S+72Pdr1rbn5wTTOqPQwa0iQ+yJQArXSl/n2gXfFYAyuQZjy37umktYp0C8BVQ UdkCa60foEyY2ESt6PLuxLFLDhi1zI6zo+TYBTlWOMb4LzMLdAYHmehHtA3uccJEoGdsMm+Uq8YM Ax/Bz1TZX9G+l4Oic5FZPMCIbxE/8nnsW2iw4mGyvq21/o0TiYORygSEJtBVbRu1+skxQO+VfVnj VL5cCA2CaaIF13eOC5qvpai2PjaR6iMtiEXwlTT1RsKUIULuuNhXtB+AX4FP8p5j+hY/OXgaoUyB aD+HjQWABH3KXRBf4Ix/rrYifvR+aQcQm594SJtCk5DUWvSIB+OaiF7QcpQlid+8c7ecIi182axa yD8QPB6b4QNC7k4HsD9UvgVtxcMcAlKd8N5FzyONGcvhtKkfHPpPbU6ccOIZZqRDcmphYGjMF7Qf G+3IQMjvJkMU2hKNkjF+GHNLoGD/H8/nz6WN42RAbHsyYj/2CUIwh4vGc/Hfs02EWORG2vl7ASb5 PvyDYDGfkQXMx5p2R/tc1iZkbUfOyw46AsZKoNrbe1+NFtm0cVR5xgmmGnxpH/tvbLI4Uy4OOzWf 90Qi34HxjgnsM+JMJP49JOnmPGhztQkGOjIDmdXOljmy2rm3U14qOk5TokxRzbUWbj9Mrm/R91W2 6yV0Rmat55jFK9qPzfXkW60XpojGjEbA7MSqMKJ40/8liddp2rLOmOkItQpsrrYoSEjd6ufIDNZz /0RqFQmLEmLit9rYcZ4LmQgipu+cz4qIm6ExJ8zRidXqxbsspQjaJvYjARCY86IJM4FKlEsGrGBS SmMmRKzjW+r+CI7xQdqGpE5Im4mR0Ag7FO+JNBdfMJml1jwzYjQMyBpGJQB4R/Pt06TEBGPjv0Wb kEDh1sYrpS2awMFMtD5a99Awu60CS9Ot54GK+RuMTJIqTAXAslYiP6vjNpipJCsWkpTrjAZgHdAm Zlrm8xUKYOr/Hz3HEQBL+ongHYjdavPOUHHB61oHv7vp9xJty84P0oKPn1nZMZBgoTPRUo3MXcwb bMRKVlsdROI04Y6G9rBD7+rzvh+ZrGXi5YQImGHyOAjGwjryCsN7QfZ+ZMQWqpHfE5TyISjoAw2d v3WgRav9FLfp/hFChyTXpvCZHTYcm7EyAzTHCGX/Jj1+6T0k5DfronnsfA6f5RJ5eClOE6rMwRSM bOSd/8pk3Q94G/+RAGSoPWjDvL+iTSEE+LveN6OXgEw6WwBd1wk9R3Qw0JYTcDrmcUQLlbX2a+jW jieqELgvoiE4xwB+xWN3L71zQHcacOHWSyaFGIsJzuOoqMA6I7DaZGFz2gwzVD1NDfs9qH42Dwzg 1JmZWuHEOI4Ms3AgQZga35q/A43/iYh/eU/fe14Vj4oze3mHABE99zNo6fyjmaoCs5XZq3nPhEL6 xbJ4ovs+YetqO868OuhW32+hU9HmmM+p/NWc13pUuojHFc2fEW1eMwYEk5HN8qNDhD/MjNVef4RS NoaqLgh3taPG73Vmmx3Muy8kzCUSRdLGxFyKUKpKPCRlIR0vmOifGJ+hdg9HNiXrZ3TUnDSKeZjn I9q58yEzTJIv9VH0yfbK2ZQG5eP3UPkRSv2AnpHpMfksMSBSU+x0Gl2MaGjWcHnk+BBwdfYn2tTw wSFvJtYERMh8Y/5grcoSQRjnnL70/M3rZAGGcDQ/7Q6QYhFEdIbGYYbHmem9d6OdlawILZIXIlqw lfquyeVD7GbHPq6rD6xgk2I/4tT+iKCV8yOG8+4s5y6/+0+0fUlauo+QHkEmLR4Tmv7T34KZ1mQu 3lDBo9UIC/YpTmPNVxqH05SHacXPbks0hg6OQQEvfsZZdOEpyCatioSGAdCSk7mLpmwSaeW76M16 VSQ7+/3SnKwV7S/gYPP71FZomaPQRP59JsHaWnhfXdThyHqIF5+hoY+1jhEYHM8cAVPGPXdbRNrc SL9oE+K2H3lKdWxRKu87GpOGUQ6Ibjcaslbbyz5bYfMNYr3xjBgIJ3P6Cu8RBY8aSHBQLHKcpWLR WkhTbSIz/VTtRkp8TNltRbQmuMWZEMin/JcthzbngYQ88q3Y/Jo/J/rQBKSgkMTJBvzW3Jy/hrkG LUk7IUZUZ/hzfBUrWB3vmGte9r94xJDyWh3Rjr/Mt7TRbigeYWGw4ZL/E0+yVWHhj48BWHIRzSOS L5ZM8Ii4VFIbixitCX5FHttcpy06Pf4nCc3qr9O+JMXcSWnTxkR78bdlyZLPlOQZ3yNNQcLcd7xq a7zvICMbeR5mOkyrIaGONAu3G+cGrTPv+wUsnX+7axyGku33xFgnR6itaedJSwMV7gsaQYP36Ioj FVsac7mNNbcfZL/RvkDFwKxRcmyvij04Ig69P7Of35L2wMHwAUFqhBYHorBKHPuy/4H2e6yvFj2i GdcTskQvgg9V5DMBh/PoSeYHle44g/syGsP7xv5R13bGMCMY65yPTQg2+Md6JCYWU6q9STikEYwC Y1R8I5SmMdp6qqoxVLoPI2G6kIZxaC2NqSrHrGdTx7Z1MLcX83wqeDHHGX189SOaaT5X17zyz2bE X6sPLzEWLAifu4iQ+Thpo7HwLnRAQFGIAcH4BAjAq9GnOet0q8ZXH/HZ51rr9wwUwggwWy1KRPxa j5wi73h2XMUqQg58nIEbvi+VPJjMR0I5AbbUboTsz72fUS3NoZzwSLND84nRpm143nNOUfk5MJQk E4LkOP0YrU2MolnCbbVZ8SCYQwzwdNpyaG1o9h6PrAObtMQ4fHiL4GREB2Hf4sy92uP9W67HTetU JXOig79Ph432s29hYTxPexY65/WVhvK7xxoiACQ4jpJHXlO1jTk7/U7z/N3IgB0tpJ7rTv2bBLlp QUE9yN0qM2a1fevgCwQwg2I2gaTslecTVtuuaCuIx/P+G8RyCZw/EDnalEE62/EtWBKNtjo2AYN5 o2Mnf6dJgC0M0zrVgk3pU26gPPaf0C74AeS8vWX7tHuki+fYnDlMO/aNEALkPlUOWpOtUlyMCrGW VSVxnf4BDItPY3P5nxz/2h0rQTMTi1jrjN847gUdEETmJXwfUEabihVU7ekf54dYOwc6+f5bfd/X WqU9DHdhu1VnYl4yQ82QwI/3HMyv6N0NvOcyMXWyDgmkgTk577oftqahvOqWxyI37JaTJ3NiR8Qv pHoSCoQIhqDMT1UJQdIzNzbGOmFHB828YBYG74xLC8+COebk05f/iVPLIghu+p6SP0aiDrx/jPko 7Cc67ziPEnt8jukU3fcJsUZ0KZ1pspC+Ub7HbgBl+3lt4BsCQOPEuSYcABhzWQ8z7r6VFaC13bSD sJY2OrRZap3DFYBffbQzRPB85vAFIIjt1M/dkV4+le5sM4H2QxsxnzGO/rX7COktpCrzw3gxVSwB De1h20e0I1dR5N2m5JIWwKR7+mTbTsn5CaF21hKrkaO1dMRT4yFewcJU29nP1+rDZW9bmQj695Xf VQnXQcfbHHO0QKjaA/mZm6FMZtHNFsGMAdX/dI82iTMGU8eoNT6fGnWCZQEazGN1PAgTFLOVGJyP +6LJLTAPnycyJSh5FxPs8N1CDVSiHA0iOVc73+TBMIC1sjRLnLEOngWaxJ5HEzgavNQnKvjwhVaj C44DHAluq3H68jMk+SMUeWfe7pffd5uOZYev01RhQ/B3bHo0xhK9MIF8YMhp/Uvzsb09CwiUbzJp tYejvTobN8ZCI8UtRSsuoDFPe/5wcse4oBu+HsgQ83sKTMZp3xdZNccKJIphEZSFVsXryPwSvT2X g1aDf5xnV0cpNK5PS9N5Eg+mgemo7DEdYmx1q3gkTGVhiqGQqncR1ot7wG9x2pgwpIONMGdljIZO vmlhyt5fnfnr4Ja10HSGocVRv0oSy5Fqp2sgka/RGuoosidGqYyApVSPbO995bkN+o7OYDY0jilW a8eiaxMcwIPoze9Pgitkfto0yXYsxKAnwgBaE+8x6lYBzNXoUmmr3f5emV9xbrLywXZDu+XH5tjf 9C6foyYawkI/R471LSJ+DJm+7w7swMC1+1fae9lx5divDsLYHJqBoet+QIL/rtNkIvnMG8v/R6pm xsLJNwheUlFtQMif0de7xspzPm+9dzvaf4tLEGBCPbMAl4gqkYn5BSP9JO0w1XwmoyTgbhMLxq7D ZfE454KzS6ImB7f+rE7EdKwim62qHpizF42lTE3+ae199ACmj2g/lQouW+Ok79KYW8CD5lmlRdHQ qxMZiY3U2uUzS+/gj5k/0SrTFK7gNG3sBkCKz+D7UCwtIu5rK98+n53nBRzY+VtQqX7Xe0iUz4j4 122Otq0F3qMT2OpvQ5qxaD6DjDr+rb8f0jr6iOuR/KYFZZM9HarSIszgIO+ZdgfEKelpiLmYeQgi HNKf0XY5umuYOPr+Lm3igBzV4d/iIT05IDedc0xlV3hckqwTJp/BxjrfozVxeSVL9MM/3acpWZJ9 nRaNy6Gy9kcqVDSi6nBCBS9Ddcw0puuYd63bWut+CWHgHuRuONFHJZ2743QQ1KXTQGCA/0YcqdIF RYaSxqwFdjtfhSqImQnIWUt9xZlNG/kMCZCXaIdvpzSuAsXRpgJoS8G2S06kFy3abq2Te/HQDj71 iBl1W6eTazMhNIbLbDt6Axj8MOR5QMla/K35IgQwQTjFSEqRYe6rxg3jH0FEjasc/2gNCk1N66ew wG7Tnk+VnJIQ+twPszryHc64uLrJSk32ZzWYAa0QMgjGr1yjSui01hZvVjpPQa3xOrpNZ4ddt+Ts QNgY0lftVgqGBozpweLVhmLB9+ubn+pwy2ofwacWD2drSIojUVLvO/WZDXGkPUiqoG2tPSpguLr6 +4ziVlA0ToY/nE7TVu1Anx2dlj5rc9l0jNCGH9LWZ8KNHEHjehdaoH3H3KpN8cJhHvPu0P5I62pr fnb7Xo7B4UveootXF5qmec0qKgY+ao1S03Ls9z/R8SHmVaaqbTCc8BDRWFCH9lH/aIjNRhnqlEVl EldNzMiJj8Be1kAa/tKeJ1In7yZTxskUn3OR12kiRnRU2rA0cYqnzOWxsEc6jDep/uYs3ir/ozYm WlT5WJoXwmQWwn460zIEWcQAY6BD/siZFgsJCy875Ifk/4tAmhVOMDUvS4CD+nmPZlrDrdc4Nz+b pgT3HuDO2CzznAgb4gAz6GNs6GWTxNJ1765nZWLZrLnmhB0nwOEs+Ewqt5L0bAY8Hn86hlmE2xkX YVyhk4f5+y20sXebVC6kEDwjhrCZgjRyXS6k30/OjXkjjWMwyt4NcGBC4FQX9p59kj/kY8c2sUxv /864C7HROzj1ONTW5AZjCtrfDUhc1wNI8N9oC8F3i4jP3TEO6IigJIsY0wX4e2EOpYCqYODe+/+B EdNE2uq3TKuVcZPVZiabnLiYfZ2r2oBeBJM/Iw+o8f7kAfiNOR5RTG2G91DgTAMorD9/vsPEcQZZ aiPlYEsybNX2jUdCWA0OdYg00gL9aCwEyYAGQ39jIc04TLhycHb7CGZwBy65B/GqeX/kz/eIALoM GGopzUJE/9Z4K2VDNEVTY/I4aMa8lmjhjU+6trXgjH0QNDQ0zsa2k2tY9aCHxltI5e4si4j2W3Dy 4QlQw3mJD9L7EhH/DVkju2sV0D7p52Qk0OabhuZDcKT/WzgcUDHac58mt2lHztlaa33Zmdy7gzPz cA+TKxguGl1hB3+LCelw3jLkxTAsSUJhSR5JI1R6IWj79Emm1MVMIUhU7Wmjocbpg75JMamNvvtc vE0q+rCEZgzlaEb0jVYxPslEH7tNERa/HG82p2jqGAHOrjfQ0jyhG3Y9cz4c/RACpzW9+Xv1f8QT oou6wfCUA7qO92y62KeK/P9jnxkD1twEnRGkjJX/j2ByfqrW7+rcrRLo+c4sVMhJx70FxlzUICjH EU1fffpr2oRIU0O/1jaGFPnUtWVx7vJiuG6mcHpMOTaLs1TB4oE4K76Qz8y4hh07pPPhnOdzbxqX Ezmh2Y4WIvfIelzZPtriiLmkFLxEm2sgiHUWW+9hWpYZuU+T6zqeXfp7mTyRSZCrz8RXTGB3mVh8 ISNVl+h4BOtkH4s+QIXwA//LuzkniktXRBtGjEZHMb2MDl4ifazsg/gchSjqSoMhzMoMXqfZZRMZ P5a1Po5uM87SSjyUEz42hxayHHIaijNybEceBAEVVjt/dVoCptPTwScNnIFe47zD/Smavk6sHh/A ZzWqYBnfv+hvIi4RAwKGHtaKkoivbms1guUN+YS3a5xAsTiYlYsk2h9jcr96h/Xgd+ZjtMbxgVm/ +CjawFqMMXvsZQ5OmnqM4iniVDOl6aKxsRnrfkSN5alIwwvaTtrYjLS2XGoHf/hR9iclfJ3ye6GG ke5v+3TC2BzOoKTj+3o4feDPVs1IBY6QTue+Pkx0ZdnO1BLc/7E0PhY/X3skAe72DejvLR6ZsCGp a9y7pHwuCvY7GaZ7MAB+SeQzOHllVmmBFkzF7/lMpYKvh7+CWfWxuhokGghQxEG+qnJIu9Ha9ooE z79BN9J9vuPhB3JkermP3fGCN9HoElHZwvRL6v40JRFw0Bzmw0el8j8lZBteVVo7m0ONHkhfCs3K NGZtok2t4/VoCwDgqI4L5M+Y7pcLzBNiMAigHVc2YRLDRxmxmYH6fuI0AVx71ndsYFaUufViQt60 SD+qUnjRGUdBgEumiTb9PR53VEynmnHgBMOk/2TbX0g62kMy71Ot40NcB9PVRpJmQKh8R6f5lOpf Oj7Khl9npisb27i9UzZWxFG7ts7X7BMo+ZPr8RXPkGpVO1zt5zBXrIOINrMnUshYf4uXnDF83NG+ 21QzyhmjTRja1zoc1zvnd5iuBgAO/wsBnD8jkPhcI2IhRTFPnFbNTqv4g0wZmwrTtOH3khTaoR4Q m4jf65oEmQUOLBqpOcwLS1CP0cTebXL5pJyJdck57Bdju6h9HHcWl3pgJmwFA9kMEirM6ekSTDHD K1OuNIM2GYHUWSoVOrER31ceL3Y/tLsa1ve9HrXOElBrnTW+HN+hT7QD6/+5+vit4xUIvEkvH6MN tXsRzYH9X55f1zuYcXv3Lcdl9mqe8whAfSyN/mfEN58xE1fkFOkaHQDjYNLWggVEWa/zhlh8MnK/ NAnarmve9lnIjnb33k9FE8gYhrHKCYzz/sW/2dFr0iSJTzatCU/wDrPUEp9+b6NP0/AIwOUfvEm3 55jfHfa521oDkfE6R5YXmmNBQLhfNsFSFqzGBN1A4l5ds3AcpYg8OsH4onPV2DARrRWZUx33FU0j ZNqvdeTK/Yo8HCft9RbK9dO6rmhh45yzd9T6NSRlNLCt/2cSnxPFSNH+R204heEoXPBisRzHwH50 9NqL4LR2VwixloFwrqRo/LwcM0vrsfgvAYr8GxusTIxopM0l+qnphBZ2sNWQJWP3aU47st7wT45x /qkc9zHOquwYLa29qTi0VfD+2CwTwHFUHrAFLRb5rFNFfCbeRwxWtNAEdZTBAAAgAElEQVT6Jx5a GKEDfQvIEUO/SvuJ0P3o0cLWiZ0fcW6Y+5zfVnFtxlyQ42CMmWODrVuSPhv1O0jMKUWOW6c0AXyG a7TqngeUahO+kGhHPlK+/yseEsJmXDnRq88drFD1ES/AWIy6uVcMUn+LZujJUCx09T+klu/oLkkf bRJVikucDG7ToG528rjj9CXDtBITIzymufW3kkUzlb1MxKH1Vjw0058YQnE3bE6qDWbuNIWfELIh nI7DfX5n9DVv2jo0nDaYaYP5V8CKUyMc/QSNMVaOFJmQYsRjdzpAVCH7OPNxILInuKKDh6WG9fuB WYd8kZ3lSpNR/rMeti4aI3LMaD7G8B19n4URIJfs5H8cZJCRa3Rspcww+pCEPE4DZjveHHf1YSze wTPMQl+WCnhSNnO2+an+KsaQbQOqOAWk/JV899hUWnuc/rq/MFpzHBfyrI5x/BtxXGRUiFK0Fq0k yReaqWiQ/PO2GxksHwYeSbrCc6TCkPqElgI4AumqemmizQSXHn71VsTR2kQMOm27SgKTZGP3EdxD ZTPhQqyGVDFqszVwJBUS5m9FlyNeJO7lc1bnOHku6ePEy4qwo8Zp22o4x3nEiubiDontWEyd/FvP ZyEOh1zzrCh//MW30P915oT1iZbWh5kG7UXTI24wNFFNXe2VVnkxbsZBeVbWATofZutuE+igb7bl TGdrhTo1us7MXsZNP2Q/WzOX6TzpGYNH995XHixEhx2V3znTlg8//+w+twHTErxxpJ0bf27RVxuz KHu0GdGmASaQYWeIXahZ9lk4ujQXhQ8O6ZwS9GOt9XudmPfKfpCct3hIyfdo6HftjpVEajCXVD3O cQ+mBI49ouHqqwnQ9EYwrPyexUSbXF7QkE3jW3h3SlhnNazdeXRGM4sPRN9K6ch3v/n7zqsVWFPa jk6DodACUXMnezqTeGlMF63hYX3k99yZcuSsxSmkP1cXvbP/yXMXz1m0As5/i4jC2f8ZA7aaq0zU fUYiLxF9wXv0wtvJj/Uwe8Dj/6y+SoEDSZh0RMxXDrKyeLMdGIwrgZ3HtUPSea3jimXQj6vmZy3A 5gHrd0FlcszqbpDVQTrHkILFQvtKOjNHEJrK/7IG3adZ6Dysq37neRiNjWOzlTw51pFM2O0+oZ8Y rTa4xxVKnRHDb9GSuxoxtx0jYV0Lat9tdlMZEl8E6V3jkoZlzRAWmE+lMfl+tSn4tbtw4H11oqjN rlBb74POt8iiDUZLDmdIzMWVwE+VIXjWk3zxs9XfTGk4nDJ9Dziw9W+CCQYMfOLR5gkEmakMZZaJ uLNCiKshYhpstW+TYcaLHKAr2z5a6v3t+RiM4VQaVzi0iTfPm3ielxfz8t+v+vuMI6GtS+oPrfj0 2fsZmIhn7coBppfpRmqjNrPm6M1foQG9Bw9j4r0yHz9X31RgtCtEj/e11rfteDuNSx3d4xFtrXs0 WLhU2/9Enwm3WQHj4eBVAts+U1YciAr9zWaUzTajZm9iEiQ+0CMFIfLPvSjjuzK/vBF2m1G858qM LCxaBTjTmx8H1Le2VtWNfA4HmjQLp+PjxNa59vU4M/Gj5wsdyndAvW7qP7LPAkvyezYSZu9df7ff 6M3EmQ8yli8aA58SUFOI6X8qOzr/iUXxxnS7l7FeCHUAJgdh8U0u0doOvlrrvMaDv1c95C3/moxd H/KJ6ELDTApp6dN2SGcmasgQh+wWD1WHLX8Tc/TDjwWr8poMNPrKgHcYQa9V29EIxZG9m8/XJlpt plVK+GokxX7KTUxkEwVUZ+82LflcNc8H4U50qEzP3flnzOc26EMg1PT52e3zkPJC4uddc/QVdKT2 kBnMqdCI1EzrgTodqd+iHUIJh5ffSwhkeyBIhmwnevj0kUT3RnaWNuYugIM3PsKn8ghDoA70lcAk gI0AogoKf/PhOsb1FEm/RB591KJe46yGPTMvaZTINJVJjriB3zWR9jDVXpgPRqOQACacA4jUoipH zO1ZMsQZ9Q5+17imyfO3LOCqPRVy1vV38pmMxpSm3S9MvFc00rrM+ALlWbHl7x6vxkee01F/bJ3Q 82GK5vtPN/QOGiHNHeh8BepgMr2sC4YWcZ/5va+wqGv+9PdZTD3idN5tAofnsk83wkhuo2ruZA87 dBLkf33GBIF+MUOO0i56pwJxjGWd9mKhInOR9MyxuPk3NlIVSxv9zs1tP+ZIMR+SHgbzOYujSp/H oPYMMcKUn/Fglu9B95mSjdnEQgbzjV78q77j2Zfp36yB6FdmpZ4v+kHrfMa3PRmsKYkeJ1Piu07Y ePKVz6Oz2ZgnNCieejEvC21/HNe6jb9Nf8u+Wvnj6xXT1Sx6sV7VhKrCA9HS2mcFcHDnxTROCYiQ rSzmJEpdKQuSEvgmrzDsCXl60f0MGuRIK5ifsYHLSR80sNQsSNZCIT8uLmGaez4V5WcNmYfpy/BY g9HWhe9ebbzJXC9+PjTGHlpd/0+ah36veNCLNSa15T7atybGGoD+02oxKGJ6bLUL7WattWuMo7dD A9ksrLI/fGy7T4m6Q6Ukh7SBMao8jNplQh/xKOz2az3ytVx71bYzxH2S/Hx2O/FmjropVcxhDVEB qmiTxKjYYeq4zdX5QvhaZD4f74spMPHoh9+dWXDRMxEthGCguR4IGAe7MAve1I613yUa/ycecfVz rGt0bd2nw2VjbpP5bdreByNutemxmy6GwA+0TPM68qrWs7l8QNes3ZiDN8JFffOxJuHG39vS5M0M PDgr3OGs2Y61mg91XKaBBv3qlNqskTszVrG/kQ7HnYAiHAtUCY7WDPvZBPThnQqUSgqD8nCa0Zoo xFQ2B4BtD1Ml/4GsTAl9mFSirTe3fQVfb3aNvCYvn/VaOBvaa3hE3BknbZqZNA4HQqcmPsxB5pS8 QxKiNarbselIAPBvpZMAPzC3ntZ38BqCgSTc0qamibSSUbE+OTk0yBqdPE0oziQ1w4A/q226Cg5l o2wES7enKt1Iw3WaU2/RFVZeHb18khD59+O+u33WjarxDaljNR/R6tbaCenp8wm2j49NP6RdpWuL OQ/fRe055ecwKbVeMdpe6wQenuJI+f08Lm0kyYFZ92O4d/qS02epsej3w0GOv3w0poKcXwjp8hfY POqLzevEROaNPxOh4wgSqnWzGTy6/rZAkm52vkw0FtBSxurRlQnnASMkhSUV0HBpAhGMfidKYcm6 X/zz5obYtGd7E0aqHB6eWWexOVdStzSqmA6/62c2y1s8pKmFjI8HVAawBEjdqQHDRKbWMIQ4jwC8 0kowgufJprhqXaY2vg16MQanpOe0j6J2jlNMXwy6TqFrE5s5+ezHUTk/+6EYxIEK+vNCa3A2qEy8 oTENyNwjWvrXqTAmrglDVKQq6tBBn/IjxPBUJL+EAoyrT5e9q18g1kpl3h38cWQcvBrmoOYVpSMd w7B2eIsMNL0gZDl3kcc4I7VhahwyQIGxCQYS8KwUhWRqBz/5rEiTJ2m0c7EcwfWztUA5P1AVjsYi XevoabbzsR9mjefP2q3s28Lmvh+5VKz5Z0SVcbKJV4yz2j7H5KnArmhPNrFjKmSGzwCmc6psatfm iM6JIw7yJ+JINzmOaoumpYl2o511LBxekGbDPyyg4SnVRLupJNUaZki0pHC2qNXroXXEMBAbR+iQ tOu8U8NtHmdK8jtDuUjOi/oq4q51psdIwuLE+rpjFor/y3nTAu3dfsxxSGl+dptrJbXzd6fgVA3Z 1blqaLTyyUS3X/m+tdk0VctM01hY22nemvZ2pIsBcxym9ZvGXeklcZqvez+bX9aGBQlLGyAIoe/W 71ziFNHm0IGe0od+noDBka2utVx6pw5jVZaq1nTu4Nh7uyI2A3bgh9KOTrhzjS06NxJTi5Y/IuFR 50SAP1bWR6L93DBv+hnGIN+n4FhrDJkuVfMruio8YEBEm3IkCt5yDD6hCDMs0aek+e6zKtaw93gw FYhSxOkbwMx1pZgk+V00oI1f8fy55wYims4aXhhrpJnBuJfQoNXZw9DuWOOpWfaj1i2aofwGjecj 332DD/TshMbZ9ND9K5RdsB7WB9kWlXO2s1K/+9iPrOuJmBFJZ+O9aZwoC2j4mNNW0IsnkUL5s21B B/PYlUjxI3gWQri0SyNOzbKnxIvnHH5gyEJrpBHm8dOn+IOkpBP68HcsNcgiOM45zLkwhyERC9ZV H8f81BZa1E7xyxpX+Y7rBVvyQneKHCDl74MByGad7U6kKuJ/xIY8J9NTf7sP2qPBnk6mSrNs/exA HX4I9KpxsTb7BdQ/xmuLJV6MAwSwUMn1HKK4g8RQX+jQArsT4GCkHY/dRR6PtYGdeBaEkpdHvaRs 8yMnAVFxtNnFPsX4FX1hpU/rHTk3Q01PZvPVzN9xnrpb6rMCRdJovFdJk7sTEMvPQXIlLeq8AdoX mq32t0qLJMNOJmbzIIiO3LHd/hcbmtOG5UMxbrX5f/vMf8JMxg+Zmodi0HXizpqcTa/N8ZnP2SdA eB5XSGtz1EfaFhP+qnmQSxchUCfpSyo97ThzoWqwRfPpt8aKn1ygVSQP+9BI1S/V5JD8mDrl/O1O DIRg33qvSplKulTy2u40Cx8I+tb/fOgXpsRZ9kbe0Uz4kYxRElkLgBZkbHs/zCAYz7Wf2IC+DoJM Vi9o3dqaBKa2UpXXzHfvOcZ3vb9WZwQfKdeaG+PkfzKonc2LmQGQUR9Jy1C7XM/s8zjfqwtcl0Ou ufGZafwubOf1uEdfbhr5+9L4fUgLh/gnmbyYNefzM+h+rHu0D3hnfPnv0DarQQ7426APNcdQCFU3 jM0BAQk+3dUopgXMUvfvSRpgghzOT/5PfKTuv159GxCLWDaiJUg+97UfNibSHYkXaq+ItPPObDQJ JofGWr5VtC3uzY4kfds642xNJSZC+iCx8HccdcZ2x77m1isqcsD4rgriMyNI4zIjWZ/ojezIO+bc cce8mN1rVlcF7E7pqaur8z2XG8XH8MU0aAhM1Lver5oFskBmELQQxpBzH+3YF93hg91Z3xUn0VoY up9md405+anQwTg/BFlv3sXYZdi7BP+OgFacNjMo0Lz3zb4BBMK+K/QHIqBRYlwqI6lYC7PbJp/Z t79CtZbWM9IykwmN3ByOosZ/pLuM72PQxrEJp7vgU81YAIx/i/MmrYgzPjGrb2COMveZNkFqB7Q0 jerMwxqJeYxPgsSmp7MMjFbNXDe+BzplbMDT9sM2ay0enPSr4ngaUwU3RY8KV0TzijXsjN3Mo+RO AoVfPiMet9zWpERw1A+2Ztm1kYu7G5H4ijZ/fAMspsOOrF8lhq/ce6RpnA4gtrRjG3XGmd0tCVZm nBaTyDqVS46TjNGmXkQiLXH6BJgx9IF59jm+N6JSFcvVJ3GDj+hzNsQafk8GSJqXzbz6XHVpuchA a/ZXx4KjtRqARpkaOU7q0VrjcI7jI8f9sWV6ip7vg0a3kNkXLcErTT60cTX2l2nu0YfujrSaONGl yPEYVkdTOobBmRv6ckEPWwoOH2BiEsv6s9YqDcJhnSNjlsFqgpZ+ZrYjthHn7p51sn6tsxSlN4ZL aP7t/MVMKXG6eUAgSYinyoOhtOmt/DIv5JCYrzJpUfuGyJ2MWJm2YkAfAZ3pKkhRJOHRPlJt9Y21 M5XcKGFoLdwma1X+WLSzG/SptZlxLPiiIFbmq3kWdCtt/SqNaObg2RTy3I3O2TK5ao2hN2P92xGE igOJJ2bZ1tJsEVEXrria35E+LUa36rPmuWsCy++KgJhulSiXBJlQ6jHJaG1DX5d15tcUo2pRDQ8e DAcTvRAEpQU039A7r2BSgnVA20u08aYJLdY9sqLKblPTwIirSTKmiMwFm4JgjJUjArO8T6WKrNN8 fLXex9n2wfQAMQhAmJO1fTKN8xnuvpyJmGV2+Z1Q8JnnonnCJ1rLlBLtZwDUOWCvjk3gT7qfyidc a5WJFRoQA2ZzfGoh53VrM8J+ne2tDo7htCNxgNXMwJYUdigZvDVBVXnfiQ7JzPAZ+BpXmiNOZTci A1IGfm8p6IApKNLv1RA5jjBpJzeNYamP++pSpIX45f+YLEXf1VD5vLqtUkYYZ2SZI5sju82/FVFV 3XdKUvs+dZWd6FhO8HqYuEDtjNNBONJWrGFp10KEjXOLvFNxN0JlweKsgx+NC2QMcIaNXhVVos0r oGyOLzsNKtQX4wFp40zObSeKhSlR0l4LThFpSr+w8HbkkYQr2hfh/PKWVKqaTKttyIpYR6tuCMz/ S0ztRfsTrV223kE9e/MXXAqTr/OuPGDjBUNooRhfaZ6Io2SP71s/PrvjB9aWjrn8LN0J4lej0cKq U4ZA2Q90zblzzBmBAYOYmY4aXTA4jMTzWhvo9ZHasr7Ldt/EWOWb7Ea0dnRtsoqFRCN8CEaPr5zv aJ4oAboVxxI/XaIBC4QLmxdBQ+5WVXARPQrsyO98Q9i9gidDtftchdUPBPLvR9RVxPwTZw3WCPkw DFQEcPVEVOaa6p+/x1k9HUjVJ8OOmI36gehlJkgSMcZLnDV+58GhtU7zI7Qo9kE8d5A6n02/vvi9 TFLN14fWYArMFPtOpgnr+jPHH+Mz6OyfJx2Zd5mL0RnKZcqs068y9MoHxr153KID7R7+gMaEvzvR vFkJ074Rgql8UrcX5/Hwiub7wFQ5K355tR0ZOQB2L9qEAdluhFEinvPyUX0xFwViZR9Pzng87Pd/ t6oZxulk1mbWZAt+XKf9ecCCfLSh7BNYIkWcjIo5Ak3Kjxgb+v+JvtXVY/YGm0E3zoBPnyqi/RaC bFzDYMgyQv7YOiHVKl8kLWQth7b2ASLGPmnDxnTbnDG3Q2wnHjrWOlkY5t/wKfCLDo0eSovX3MqP WeupCMfhT9LPEAgHyOPBVi6NiZyLQ0qyTY+rpeg661BFEnevzquKOPH62G3PW1vQJpvWkeU/yXj0 RbDnngTBz6EdJ6OZ8RzUq0i3nkWye0FMK977Xm2j/7v6lqYQLQEX/t+QcIA+0Zu0mH91guO35vAZ nVJuBoAxKgdrtQk8hVV1HQlr7k78dOYBMRrHn0A7oT9Q/COg1kFlhAZtWavb2kByX9RnD7BTTfyB PkCyCIsKQkczPH7j2o8jAND6uhW0dr9Lvh1CshwjEeEaCvWzIJbm67Rnj4obq51jbFJXIi94MCfx DxIM9aq2a4IijmvLkr7yCgrGiY/oiOqnpLOdQcPDXoC1z8rnd/+/TrOMfh0biYjDAYR2pEWQVhFa 2Dq8JOmGEPh3dU6Rr0So1HhpyMpIiLOKObEl+2ukxjB/mItN4NpTBBhLA6pN+lrrTNkpbYFUTrp8 ia8syMpH1UZnfUxvLB7qslUuVvbxvR+w+I4295nzz+iD2BvldRn7z2GT6ueyX+lwdxo5Ev1nDMiX v4AeXM0I+aldHJLi0hr4MCxCRZzXWefXBFlLuL8W22nmP+ofBAuGxtEmxwyJgxap9JZsD2FSWkcb 2Yl7dXY8xwhzkbDooBUb46gQudv8rDy0/J4g12/WS5qadSTt3cgWEGZJWT1/SaHDWXvGgbDEj6l3 p4DKjetrI/BzHYeqoniaUwE8mms9szr5Eg39B9MoWjtUnGtooEuc2o12P/ZpZWCKlhC5eEC7L4Wp ByTlyKd6UyOhxXSC3RIRp4NlJ8k+gu1Hdjkn8P4k03HktXyA3VFq2igJEmln53uVk5VMFdEnBP/s jpzvyJSVfNf+1ZHXo3kZBHCAq+BwFnMwJs78BBkOWkL/aB8RrUy03YW312pE69/1MANZAwcI/SFx 8VtMY+SoShtp3Q9kaZ8wf5nBQwAz3/8Oofkj2jtLwT6WizYgtJc02FqdUYBw5ry6Ty2iLQBi7L/W uiZN7+xsRx6PexNMxSE1C6NestukZcpE23+Jfo+2kZSzuMNljkcMyWY8LnMc7XpOr+o//S2iXUHQ OB1dgxiMuebquUebbUVH0XnPn8eYnWHgghMIkcPZ1bNXfWfk6X/V/zL4YIGIWQuDORcL5/xb78Hc rgh/ic6FAsjAF/uMR3YxmxphMJ11crLu+0T03tXekXMXpzM+A8Ku1jgtDe+Ha+H/+YAPlZAa8Ta+ RyUxsKOwgSZGx0axbAdSFG4moxXsutpkgzmf0AYtrB1t3nEU9aZ3+P/A/jVu5neJU3Wb6POOREeh ayzaBMzZCY9ODg334c0Hg+tvRhfnZaf0CfyNdvemgpEnnF0oon6fB7bKJ2OdIp7Lvr4Qal6TA2rW Whf9tW42o/xzRJcipV/Ah1cJpmjpyoTWvGvcvLsJf7yYRAymqULWq21oO3MHA0XEf+IhFZ6kbTRD mqEO6TsmVdg1feSmJaZwSMS/LEotnjZcjIWcCXRmyoiHg/9fzYHNb4DCJ+XY+LcXbdoxr/lqTCF6 W3CY2a/RMOoUYCsejPPFJpL2qZw7bTJf8YDzD2Ne4ky/mLY8/XyP8XkDlCllWkXHQv56AtTrOuiw 5pxfrH0Jeb1HXOUVsIP5Xv50Dd6SPRv5pe9BUdwoC8GACplaa/3/4sXm0GJf9wOz5++FLm3Bb7tT CFiMW+ThmZy00Zjr6O8/Sdjb6jypWzJLpRVojnu3YxnxfD4AaXZEpUWTS0SlQ9xDh4X2mcZhSXeY Nquj8Uh+0lo+9R6L/BXNeG4L6PS3xva1ddhN4+D3ulo76YDgIKpss2etji3siPg3zqwC+xUFFa8+ y5NN9bn3XJMCVnabWfgVJah3O+vH8VlrMvWPMK18wzgD1JFt8DM+ExcCve2Mg4ChsyvfU1oWmjJV YrR6clzkJmaoXbwbwv3Us3WLU75nWNJIDIQtCJnn8n/yZn72Ix+LKOt/RQAzkE8rEkvAxCM1fUlT Yi7dY2iEiCpFE5HO81DflfQncwehUuaExufz8BZG9d1qnN4myWE/57vHNQzR+UgFjjy6fIAWYpKy BhBqkvq0g9l5CEbepf/VeVNOiOXEZUQjaXXcO9d370ZNSa8hYHgcDc/3Z3JpQA8JZtrjUiRXauQk qq2m2vBIrLLZcsBc7PLPFrYPQTVJviOeUD6AmIJ2gUq9GdBYoArHVVlItSVIdEzADMuzB1ohyQdT XEWM75QUhexAh9X5Xt5EtIuZ4Cgz7TjYyXjsHLIZDFzYF3NMoXwgmyGRKA1SdrfZhqnzEy14kOCg gmS7ugawz1wcZ2sYn7Qj8Cmb4TjWjAaCVPkMaGMJKK1zHU9WOza5QcQ42+J4m1FBIGVQNc63oPWm xvwWz3FmJ9RmRMStioTlAhu5iXioapfn/xEjFPS4O7pNAS4W2yfrCOpMJMUpLnt3ol2pUGk3PuXI 5c8sqs9shBdK73nhCUwi1evQF+OQMEBIoCEscaDP5nuYXeN5j4h/VyflWSuTj4VGjGiN86Y1qktQ ka7RdnwFucQ0hr1nEip9TrQNhmYNPtbjkp2tcdmExoH/lf87IIuwqfPuate5b6yVfy7oePDbd/SG K39VvMWcSkCw9oO+FbTdjwqXRlkLyClVqgF7sId5JclpKNbp40CBkT+jWVD/qDYYZDJsxBkLmShJ 5fdnnyz0TKxkwe0jIMGcb2N0zbAr2s4I08XPpLCAdpbGPl76qjo6woK+MP3+iYdN76LYK7pOlO3u iNP8i2hI3ebGgetDI0lWmAlN5f8N7xaM6nmJdi75YzOStfBdMYWYIZhFO0Pl9osLFFpnAXADDDjg E0YvJz7b5ah1HWVmTaKFDUW3F4wTSURgWWzyOmuRj8yYANeC/bO6/Kch1KDj6J0NEa5qE6nrBUdT OSp/i452f6aaJsjFZmQDE4X32JlX5SFJMLiPsk9XR5INBTsW4Dk6UEif+dqB4jkSD3NQFA2teAvZ 97t9LJu5S89YKiMdnReGKUyUmqg9Dvk0nb5yTR13qdhEWhJIZJtG9m9gOswpAzE88xN9PyDBP0pA 2VxjzTxHV+e01RGhHC9t3oh2IXj3Fn2tNabrv0nnW0nm1TZf+QD5sCt0Q0QI/b4eOTX/MqhoiVhm iLQQVwAA02LvubYq733FI5CElC2UJ9v0IaKt8V3iLAgWGjdmIqhGMXiOw5oFRgZJc+3ZIxLNhpc6 r4iy5ogWsFYj0RGTxRmxHw+ydyxgtXmGf1WnDDWfimgvJU+GTNX85+qOZR66r90lUJHMvpD1nmvv 6/BoyzEpH6ngfnPm5XwxJ3+yfmhwrycC4yhFFQ3PWghGtOArMzgksGTGXcbz9733wrs/7Psk5C0b 8MYAyvV94h8p0Tlt9hVnaRenIYDIHJtQk65AZP6MXWm0rOx6/Q8T7Yi6tLPwbBZ1tWmBc+27GCu9 AEbanWhp+7RwdC0OY4vss97duwpQOI8poKfm4BgLUvcS7bzDuAYhODjl4GZEdH0ojf07GiT4zLa+ d5fotK+CtoKh135A81WdBa0EraA1vBDPn520IIcMHwhw5w3tIp6rTSZa83PRRDzsoiGAGB+R4YLs v+gMLZcSJgetC2qsE2r5cWX1QgtY+JwE9u2rCosVVJQaK4mNul/rwMdhHtCFt8jTehAHbRNdW+qQ KvSzG/7cMACM6EXZZwSVVTzSn/PHj9WoBwxUjDDGgsSsNPQQqpXvfkRLVPr2nSI8D3Ni+h0BtOh4 heljIbFC9YZX2+9/dieFVorG6sTMiLYSWGdKf36I0Vy8uvLCctzQuXgi2zxKlKIFo/lsnljl+V/R GwK6/mh8Ea3pjILd1+N4NC7A4QOiGaM181t0+v/V8CEdlapCMq92yI5cKy3kkXOlNm1TRxKgnCj1 C4ZuJ9m2Ph9Ha10xxHV8KwjFfIbURYI4P+hH39Wd8NHMwjvOGrA/8cQIg/BHXlW0yTBpbj+H7Nmq NB59BV5dXBrtx/C3J6d3rpvWYmsdObdt/+gefYANTW/Hm1N/rjBSa7oaBGBtC/p/wS/4i7NwxV19 Rugw1G7LhINfT7wjuhsoOcwy/TzTjq4MAqeIYBwT+4mTSamB+mYZmxUAACAASURBVBHtRAcLLyLZ kawK5zJtfqIZt0wcMW99coJFiPyuKlfk4mAKOBqNTV2mgAiBfR7RKe1v0blVf/R+5arFCSzgVNpE LVNj9DEjtkhKq/jYDbWXUFrtTKJdC73yxo+O9qNBGPs0BStyvR9oDccRvkd7zJtN5HtXiKvU4TTN qRhTmvUo4RPN7HvngbnoeMeb2oJP8GkxN+1HGhgpOFgbA1gcLWQzt+In0ZsfLXKJiBvMVE61COTg YezT5Lrp+Qrw5TNcbs+mqWuTGTzqOb+q8qTxQuNoQbC/9+60FEwZMzCO9tRQFy1SYfF67ise5kOZ Y5g2bG61jfSeyNZVbb+P7zEtASWMrjFO0D2KJdAGc63U7cH0E22rC1GZB/Raneofq+MbOK7EUjyu neMhjlAV4ZNWnjN9lC8UrSn5zPyrogPm0u5U9lqrpXiU+A66lYZHK+5ODXLWxh+3I3qB5nEIrQSt o6fl+ErtXtV4QYqrAzbHZ+kEWEonLnsh7YTJFpJg02OtI2LuvzmHxrBioRNSnWup6sVgZohYm2rL NwnVVAqZa8k4n1p45got6pDN6tQMaME4bvobUCk+ICc3GQOBr0J/cp6WxAW5qq3vHl7VAo4YpurO k5LSfmZWw6vQgATBqrIfbX6V0MpnAVneIk87avNaG7N+tZmkjcqniAYcar1k3UQ0qhp6j/Hit9Ud JrtjaZ7bRnuvRhTfIk2snYR1NYeKQaxGhEzIiNPEsoMP5EtI/3c0/OYS9SW9s99vLXilV8AQu6Fh 10fiQJUJiqn2AxPwt3WCCZHzwem2sxfRjm7Z+ZL6hzOfbdhMNWP+gbaiV0nB1WihYUgCWpR1JeOh 2pVJUYspOmAG88Fngf4Iojr3n+9WnlfozPjSoat1Vs8sKFVaNlIo4hw7V+w7WlMcVoLG5s1aOW7Z 7oqW9nu3SVm+zW5UbWtdyeN6jxaoHzyX/RyH1dYjn+9mHwJH1w6Oj9CuNRx0vWsT50A2ok2HaQaV H6L33UddBYfqW2dqxFpKCFyneVgfLQbjeIvnMyg46o7sL0n8kmyo8NWOLfEaIGM7ioXm5c8wx0Ev vef4wWFC5f//61Ie7GxK4ZAN/Sda6zodBzPF704fq8y+1f6lMwrQ4Hf9fWp4tKHXxP1utxvNf5XN oTGF6MuYAWm8QUFB7bw7sn5UPOEdaKB2PnyXAh04Nwk15fPBmAWWUBHRlz/uDjDhqEMAHFdHPrHL yyHM5yC4zSGk2pva+4lHMh35U+DdlWYe7Tsh9WiPqipfMEEM51dSxmiI/Za3lJQsJJF4zK15htt+ jDUyQsTwN8+x4SpirffQci6IR6ymDhOtdRyCghFL8qrdI8agtSjhtQSRLuXXMafVuVc/qXE+tD4O fCJsDO3ijx6bN9o8K5Ntt4PP8WODEt9sDmmUa2SSpvjEsagy2bOdL870GqIDBcHkmShIqbp8dtZY PWDQaKk7F4JnsOVhwNIUL/o9rizIHf9UazaUaqJ5+CRkwBzrvJYhQoegVps09I8JUH1k31znTHTY +H3RUOP3dyvOvC877XY+Dwg4hmTF5DBTWLt6XSRJmas1nOk06/l+qF82NHD5m8ZzpI5LS5Q1Er05 bY6S1s7ZHV/B7XcOITbmeWiAaGsIE4oNelNb5V6sNsXuEXHUxSoEKBStXm3G2O4uYrA5cjd+JuPg lIIeTfMBqJZAmf0Z0AuX7gddqcCV1OFdk/5JItdFnvk892MbkcKv+IdFzLGTt3QERbeCU9HpNIzr 91YgS0R3inhEZz4f6Tc5H2cBE0g9Mp9Ffxja5XqIjGNbF6m3Dnvl/D7j3GRX0buQtGjmcjIo2smm ckQz3Zuep20+RrWQ8jj8KzUxcaWvnQHspG0JBm2Akv6rk0bdN9bQcb5mdRZ4gUX5s49M77XWtxnR KhzEyuVrjsIONALz5qC5f+JNi1nqk02j3VwpD9GbB0bxASXSW35L01yjMXwkFhrBzuOOB3BA9PxN fd7jvBy0Itu7zc7C+sfPSO4yqaIlfeUJJf0+UiKWtDKzS2rxcVQ3PG7R6SrmuOlnX9ZTZk/0JqUY 9l3PlFmzhKQlb5TAyrHW8VzzyGoUrpA2hIosDmu/8lWmMEj++BUdhysto81RKUWrEc4yZRkjGjXn gSAM9bUjb8CiPf7tvS9r91VdX/F8T4gjttjEVWVvqkB3PlSrpf7hoOWzti/ttEe8Tru3dpvmypJ2 Oc4lMH4TaGhFFuM6iA7hIZ7Pbxzl9tcZLKWqZEmwQSOPkcU54g+iu+dP9ismns2icmyHJA99V2n2 67Vp9jcoln45D18nBaPBhspVQ5hqHPDPUaxjrNFRO9dzXh2nYM0QTiRPog0MhFw0/qN986zatzn5 s/aZylCowmRmLV6d74jePBFnnVinNtROZiAiprXG3g05Ely8rL7+F0lrpvUm82SLONrQR6FniLk6 D4ns1bsJpYW+iLDz0p6IcV4izpSIowjFYK6qLiI6VNqHGASkDPvYGQ8IMicA4lwfgEGc6Rsz3lFa JlQ8WzQ9UD7+pP/RxE+FsodW8/yX5vyl8a8lBEp8Yr+TesTmV2+QMungHWmgKZR9RKL6q4CLFtfR y3sSi0qDoFB2HGFM8PwjnrBk90pSQmxME8yFnzjjMa6wUYwpwpNJfMk2PsRwSCsWpg7is0ARR7Zy RG+OmY261zBddkdcKy0kv7cA8ffvMa7F3hkcXVkYL+eAlK6gbdIRuLZsaDF/xZp2mz8gS75tdvHu aqTJgU4e+lrt28FMxGyO8xf+XZrD0XUHYjkD/49oAiKKT0c7+EqFnHk98t3ij93ZuwUirFVZ3DP6 76wQaH4NIZmMv1IFXkh+I0V/K7JmqT1PzyFFP3OXU36GYslcR/y/Yhgzge4wcRinNkKdVlzPmHYX Azsls+fMTU73+ff9Aj/fz8iQUbaITmNAki9ttPL3RNuI01QoYZVrcZiH0D1O7VW1oobGjZDJFq0x XhW8i2hJehN9HJhzsugSjWachwqXhVbqObROIYvmnSVrhjWM89jENLsP1FK0LhMw14kSP/A+fFnH z9nsjiXU71sxjq00j6VzIExod4j+h/ckBSIeaARRTojBWQfaqLPgLHoS5s9gCkyzHoBMqGjpunMM VMX4D2NlToxb/a/UjixgBbQkYVyPuC4J0gZ9gl4jqmoG2QoOBB7MoXciWruyPnWqcOcZHJHB6TYc Oqr7+9BOQ/tiLvPuUt+gk0YCQ++Rhv+uOV7jPIuDicNc3YZT8PH5EMac38AvMNRfSFn275y2+i7a ZI14BHHxq6sKTbSg/bMfphpn3Umlib33m23K4MtQPaRok8fBQo6qIgE4fQgiZGLMDzDnba0u0hyn v+BLFUMLXQ5zMokdMZtM10jzazUqQ/ANDXI4r5ofZtDssxhrC05cp818aDraiMy0Xcp7ynZ9UAdN yRx8gU7FjCR4EAIIhJnW/6b333IMB83WeYWcz+7YDDmABf1elkR0dJ3fK9AZHUCubAoEUZwQMZuU E6qgpxZIT0FMjalqAbPp8vvfEhb4g5yoJGxwlDPabRb+FLQr6V7QGX1HVLYuOxR1X3e/qeEp5WFE vq976fY+Su5ADL/rE4duzw4zKBzxAHwC29SVJr4apqzEvmjVvCKOQmqHw0/7MVJv8mO8n2dYTCBp Q7TOILWzb7SMtjAzCt9PiXtAzfs0N9F8OKIIinrHtBXz0WcdlBt0YCOR6wbNfJCOXKzKzN7tA3Dt NP7IZ7a5EDYSCGXdrI7eA1DUFQto1ej8uxn8buKuOgmJ2fWxGt4v33oTlc/B21a3HVqElHQ80uB5 x99Jci51ZsTAvkURZrWZhrRxP0fNWvU1o8XYuzjqdYPSIHQdAhPhnPtTlTji1A5LYzETHyieF0Nt +vMrMj6zVBrVNNUcPFY2XAkJ/jY2LN8b9n2SvGNtEXDQlDMUXIDpZw2tOyLNrbb2oXyvyBQszOt9 nSVSS3jkuyBW9hWIrRxAidqtklLiK/LToAvXvfHxrVarUq21+9dStDlNA6SNEZZfu02t2mhaRJxb 7HejXNiwl3hInncIuHSxCgyDhMwJoHIZ7+HkrzbzCFqZceqk2j6DdUXTiMMMqCsRkF42FfQs5gWp OwTZjCb5MNE9Mut5nWbKjJYfpznz+xnUDc2pUKekz/9p09F+VanZ7adVe5oLm+d3ZD6c+GBFm9XW OhFdvZENAopUPpvGTZTfBdAv0Ymf9o+NyuGjkjuIaeoqNYXg7Tb/Vzw2w7vaxcyFv5zXde2I4aqE MDPbT5ynt5wtWechxICONqOKv3NwnMM2E1J94jgcM5h34u43fe+IbeUjRfsZB6Ky2nb+yrFUcCsl PRuikKN92r6Rkoy8Km8W0mcg/Lv+5vMX0Iq5HrV7rUXiTJxjXIwZE5Orp3HkL1oT7ixckVA69Faf H7lupSWS9typgkmLkChTOTrDAon+i02w2udj4yIsP3PcFeuwJlztp+3URmxUm6JHTCX7rDgX7+R8 jf4hTJ18yXwwPwvdC9LdxYyz9D4+wUf0OWpexqk5cmM0gdmWzQMnwgH/YoqARlWEM84IcS3uUmR1 qth92rEsNH1D0CN4JFoAJW637U0syXss2Bijo7gX/Q2TrGJQmAuS3kcwDFrknKHZpG3EearyOOMQ Z7S+/C7RmvZsJt2jz7s7vnRkEczPPiHva5zQPP3MG3G9VuXniFYO9jrQytwi4sjY+IxHddCd/HAA GdnOLELnQPaFQeH0FDyJZMsGv9SwUZ2KLWgiNVjU6j7veSDt/Dh6KwZH6sBkP9Hxh4rZRB8rLTMm 1SxqGwlRmwWVG7oCjL5E6LXSaUMy7QYnQJwwOcp0Q7KmxLK0jziZ1kFEHNUqprd33eLFYR9nytoB N1povxANYoHheMqKB8N/ux82aDLtH+YZZ1IjiM+vpNHendBZx3rHhi1QI9fiLTrJ0yk490jkkXd2 m36gUjjhBb9ba9AfwmU1GsbYa5213tORr/y7tdYNOG/a1Q4mEXBxMtghnbSTXZ3u6bCVJj+roDj/ 5ZBKktoV64hmdlPFktBOuJ06JBcSlUg06SzhuYgG2NJI17riOPpwUh0s0phe3q/OvJaCsKalF1AS s9A+bSoH54opRftXWuSImjPOaAAFB9nrNzMtXoEaTyDA7oBcgSMxMp0HX0W0luNDH1gRrMMcJ4Ib kxHBwho+BaT33v+X6/cdZ5ihtJfRKpxI/AgYBHutJP9gAH4n/QE4b8YRAkLwjlQofy9G1oJaK1VV QP0dZvKBGWpyoZo/tDkwG/Z6YOR/YEzNBabDTjao4IqEBQ3md77v0ShcSXfoFq0FtsZtU/Xmv0Wb B4wDKVxIEW2Mjfam38v8yH/cufET8STxI/ra570fxwIKQNCmwlwEgGFN/pOaCGH5T47v8EXitEgW klvzqaqKq30d39F40dzwzVwvq2IyjG+3RiarGX+qwgwp/Or6g1Ltaz0Fp0gPKFW7OoXBkJ/jEEZr /FmRqfC7g1ZEYyPaKV2SOEazbDYccQ42dbZdbYpoSG3sb6dP+Ox6xBkBnmOzNDSAcI82Ra9aaEzW Mo3WaU5GREWFr1oDS0SeKZh0tbNtxt773Jj4D4Wk7TPoW5sozhQThA2Hl97X40JQ0wV0jyg0fEKM 4Svnil0PGgaE/O/uGBZxEWeRY86VgBgC8GN1oLkAGgRy/l/aaPAi6CzazRfG4ifvtdaPk9bCA1yd gOhSkqQl/CfiKJp8BPTy5+vuBEWYFsld2bxL5o0WFiIdUV12fkojR/br+uDUBPNUHYJguy1J6tIQ UrGlTXZnes5YAxKW+ro7N+G8s5FaVCQkgqgdNYLZXGzk/H1eOHOk9+Tf7pFnGpIubJQIYfxmvOiN g7RmXlXLLNoiOMy+aF/K/gmpO+VQ51iNLjkV3nRC0h8IqeiDkNxb8D6bEeGyBmRuoQ0NeW51Uuqr IwF/ItOKLlqspc7Zrc6/shq95QCBVNm1SBKCTa747qLA2JVlPjFYxhjt8OIoLhh+PZwv5zUtM1ou qlU+Y6hIKdJnjUzUSAc2G63UCRGbDn9YyNychZjlGAAMSNmvuWrzHRh/0oX6XHVqE6YRs5aZq01R pU6HRsacAt5GGH1JgpdZnO3VNWurzUsnclog8iwmKlnHFWTNNStTG0EJH1jQJo3RwFWJRGMrsz3H 9r1Oa8A+mH24424Q/a1gfgnaRf+2iX16zpWxWeSv1RUNYTJ2IpuKU3QwMYuE1IKRHWxCwtcmDdnB uwOLR4BJ0tap6TBTxEgC1P815y1fYbdp8zXbDJ04zHdhOMeCrE3r4pbVoEVJe42RTQxCVlJ/tRlr iNaMf6S2wMirwQ9oeCBIKR3R/rc4DyjZLIWgMJbX5wgs7vaJKidNdHPS5WHmaA3LjMp30A52vvfu W6Pob2kcaJjyj3ZbFaSnTGDnIzJouNoPI8j7tvf+tCRgwDP2sLVYlyXsfHeaAdK74gyaSKFeeu9I K1G/r0qv1OZRu4XcSGVXVHsQocwrFib/xzlb6/lgjqWasXojXUY7DuycBdVY6dcSbMd5Qs/oH3Ry 37bVXVMY5nKCZ8WSWF9rtjg1MkjTE31YQ4RenDGeiukMXuBvEQ+z7/dui8Hr4NhbbRx4Q/Q2wIFJ Bz+8xZkmwsc0N4oKDfl3XV3I+0v0qzQamySGCHGen3J9/seCYzsCl83FnkEmoxd7LAboDEznZL4f 9X1XfxAMk+ywZcfCvAoCYuJhQuIDHfCgxkgKDTDxmgy5h22r+U/TotpcbRs7WPrhteCdUCLopJ8E DIxbWlnjnMdUQ3TiM6HrI/aQzFV+XLSAeJkjtfsYN5vLm5SxHhbDYO5Lf/2kEY6QxViDj/iLIBrz rfWIUBpAtJqPaDVH1UHgSKTTwaD6mfMgOMLH6b3sjwDkd7T0cB//iV5I7OtCbTShJQZiPNjIF36W qYE/Y/WPgPgn+3CAbZ60rMzjJCzjx7+oLNRchM8l2Dz7A6W65fMurMxYrDVo83uPYFwMaZxjqgIK Q6M6luGUFps2K7KwNYyy5DfQ99gc1ATD9F6rM3jL8edd+lqdbl5lRNcJ3LiiYsHa+XeElosxfO5O /WfjoZXQCL9Z72g/mPctgOudEIMcZ7FhoNUZmHUiLGSWjEarnThVMeaG1SgDKH9DWsaSHjMKNejz EFbBmHakSNjkczE7HwxDerlQAVKZhYDpHIR7pU18hnqaYUjq234Epv472nDhg6fUjWlmrHHyU88x 3xXnKcBywiOL3MliQNMVHddpTl7clsf76nfRozTebhPXaTk48A5CR47hovVwoPJJw+Z639UXY2Zu PuVpX4/AI99htln7PYSbFshnCdgcdShezHMbz1dN2pAUF2Gs3u9qp1LSNVinOb9Uf0mI40hmEqPM FREbc4LNAcrjYmjHYX3RoHLFoosl7OgNVww9mMCSucbh75d8OtFkZiEUvPpCUx4VZTRvbP5X5rCz AXyMtbTei/ZgzOOeE43Rz9R447W/BbOTomTfcY3x+BiwfUibbtPssm/xtU6Tc43fnQHAuLfa6XmK ILNMzhqDtCkwHV/b3Gt89/+J0fXdGr/PzQDBwduR3l/znejNyFgrdyr/L2mj39koZeZ4MVebjNZ2 PsBVGz1ObcR5B9o40mGkfQq2jZZ4rvv7tjLIts4bX121cWmjMy8+mCCGlu2YF6N6nENwsmH8PCic 89MmU9pHMJgzb82dc/e6GxSoA3tb+WovBEpoTQrW1xyrNBPjCbSZJsBigo5gJlntvsopqlyssch/ M0fIlXH68gQIClbk75oIO91HUqcWZA4Rp5llB2+mZLj8kXN+bLZsE12S0+OfqNcrNOgaKeW0kE8I nNpgE2Mu4Y8d512ybSM7hSyxedZpLtVx332WTUWYoNFt1pJ/Rv8OojrDGVPJR3eftMQ+TVLXYasU kCF8yypZ62X9rEM7/mUDWkDY9LtHFhmhvbUfDuoNQgymMTx32IHuLFqSOp1h6d1Dm1jKjYl449nh nblKBzys79bqWrs28Sq3J1olYwY5Uv09CLb1fN0r4jHqZ2hhmq3cdK+yTstvECPZL5gVUkJ/n+jX LPjG2A9TJZ/FZHwy9zR/kKSC2AdPRJx+I/TxuF/5IfYLZ7pOwbGip2NaB/Se7/li1r1HnaxB64Ll NQ+eMS3KD1lr3S7R98wdgTVJd9t81HStftfqs8HREfjDD8j2Pr059P17RN3ZvdUvf7fa5nfSIBwt /45HkO//JElXCD5cQmV4Pp7TR6CBNQWIi6u9kKpuMMJ+FmVYkd5vOy+u0Tz42eV0WEyk9sfqRMp6 d26O7Me+4Juevzz+63ZXH5DCfC4Nk/NFezhjNh89jkbU2XM0QDIsm6PuZ0/azPoFEbonPboT6Ffp I7urudTm0Hpc9OxOGvmE4Yo4biOLteqw1V1tsA5r771gDqdyM2gWxZLiFp34Nwss0FGhD9k5OVhO 0CuJFCMXSuqcaHGd3ZDEXquhxeOO9Yj4bzSyYYBg785xIgIOkrUgarbDPO5xpsb4XhFrpNB8Q/Op f/l9nXUOnWHPuRh+3tG5Tb/ZENFmD5q1UkR2w7A+QWct5bVi4xQwEXGaQEk/5+HtrcTOHJNrMO+V x6XjPEMDnXb0RjhMydUmTYUWskPDuxWEzn/cXEbeIABLJaRGm9KECuAXa0SnsHAOhFSkusoYaWDz ZOZllZ28z2BPrUUIqdACFoHE4NibolFJISfieWOR/HaJqBub0BJIV9dXqqqN0VLvrg6nvV+bL38h /8wSnImYwWAQzklXvtKQ6PNeQTYRV0oXUhSN8kX+/K42EVAf0XldMF75ZNGa3yYr2uKm/23C8bmK iZwOY7sfE9JtQUiyY4lxOSn2iMB7c1rDS/MUyqd+r+sBVBBbukQnIuLv1Fn1aIHgJEzmDR8+weZb kXRDnpaq3hCV6jxUW73jxkX4Yo79HOGdTmSZNusv9j7MGQ/NQmJcmXjrrL5hZM429hHtjZY+lQG8 1gFDHg5lLtCryDaL4Si4ncZpBzOnAzk07fM5+zV1VDdO/870Zm5TM9gp9xHnm/p+Zb8fCJD+Rej4 9Fh//JK9T7OZUMA0jzjaAJDjwty0PeFf5ll+ULSWKU21RnqS2kMTGxaHRt977/dCHHbeK0ejoap7 oYg5naXUs9SqW55CgbjVB1scjefDJY8gWkiN991oDzPhXcbx72rbtqDc3YenrMqxqyN6M5MiYe1Q mm2fPpjhYdusv4YmjGjE7Bf9eWNFa79LxBElrtRrb66cu6VnaUXGt5W6kzR3QihHBA5Jqra2vudm MAZOUiZXRdAnZzEqy3m3mfcrIv6T7TA/6Iw5uXeeB0IYxJmTdVNf76t9Bcw6hFYdnVh9dXcVDVlt ah1ZASE4f7eZurK9b31ft9xy90ZJASalhXUcYXkgIvRK4jn1fL0wUbCJ62671WnV79GlY+pQPuoT BuD71VX6YnVqPgWs6/AUhJXk+i8bTIu0aE9a1BqzpGa29TseaeiklUT0nSX2UY6Lf0Qf059yrE73 gV4FeohZi/arT91d83mOBePfhfpCymJvY8qW5kta2ffArMFpJ1PbG8+BwP9GI1I73601SIFR6Smm KesYD2Hxvh6mVBWDi9N35NImzCu+I0V+XiZUsav8vuMdp6VS/vLS5F/ChGocBxEb2ZM3PJr9P1WP OO53WOtI8/CxTIpar7WOTFZDcQTJZiR3Fi8zQeY9HPXdHKsItUUT6MIGduTdwciCPJl3yISZ9Jj9 5c+Gz8tsi9PnI01jxkEYE3DuUQiNd0NCwMzB2uTvNk2dhIl2KtpqHvXOoCPjKfPLbWTbe59CrNp8 wU+V3vO3Z8azju1QR6C+WyNdhTmzcwjEAI/C+Df9Q1KZKJdoaYp0sZlmoiE5bFOyKNh9/+akMc34 ID3KJt3nSUE19zjzsNqptbq2aQHDFHIjbQWEyxHOWrTV1xAABRL4xAk/5pbzOKq/wKiYGPuMdSDd bHpQVMC3IFXwbKejL+16iZbQdaAo2sGta7+1OZz6gu9EUiB0fB9jhI4gSjxn+NhmrhFAzpngc5b5 YxpBStGLduEHoN86JbqVHIlmUf+YhZV/lYLmH/VXZ3cOJ10LW5JZ3x2Mvdq5nCnTTw6S2oTZjnML 2aQ1hB3jebPQJNyShIP49W68SH2Yc/Ocozd3mRhD0nO9QGW2au7laKrNz5VmQrT/UGOP6ItE8x20 J44086tgmyT8lP6M4VvrU1otzsDfUW0lOteMmFjVwtJ8KgcLra2xHM/FGeTbGg9m68wCWIOmM+Jd Ppe+c0B6e33jPK5gR/xIbxJfRTSvoPVvR6HgrYDV6qxJHD+fGb7svSuynI06FXpv5bfwjgfBwmhS h7nyQl2WrTqZux7o8Zg5jo2qvsv8ijMni58dH3KOFP6RiyOz0YGqvQExBUHYnBB5MHs0EseR31k3 CuKi5T/23rc4zUkW3pF4zL7K2Ro0hUl+R+d7cSjrEo9YzBHT2LL5Z78RB/Cy4+EPFHo25gJEbVg2 Jr/lM7fs25bALfrIMIjaz977y/3oZzYSt+h+xuME59Z4KZd6wQehgLKl9ZsIzE4l8ox0XknItYZG 8eTW8DdyoCBQSNJbPPtC/A6Rbup/Qre1qfJ9J9RZ4mBHk3tlu/3VgRuYZ+ZiQZMVw8aH2Ov0l+YB MmvfV9mx0P2mMXtTm7nvo09rwyOlRLQA5uV/B/SmlD6i1xZsq8MDZfox3tDH2u7VR3SqVJXIAhLR /tKM7UzLB3BmhwpoDyEU8dgUX3EKw+Ix0x/GogoI/+/QvRHr4Xv4xBif0h5i/Ipsr7aXIxqVIFg0 N0fOoTYDUgGEyM9YSmGqAT2zcf7kO4YGC3hYnZho5gA6dIKc4xv5amUfQJe9218pG3l3SX7QpRVZ p3d1xHkWTACZIXJPYKuuCZtjgmGkIaBvzW93kCy0rvfo7wa5IAAAIABJREFUu1O8XvaJmGshXC/W v/zOlb4Ya7F3n9EXg9Ynn7GpjWkJv1mz2Gd6jz6gR7s/8UDvSPGxfwlf7PVAbOEpuwZzTj+X0FXK 2chtEIHviXaiYVgEos42V2pQq2u6sulQ2wR00Ao7On/IzGFTy9dG+3ahgu3YgLtVOX1ACBbPlTYM NeIkom7XylQQNKskJ3PhBOXUBC7KjJNLXGithliZOx9Hx5kbjqYvoylzcnd+liuyEEvCma4TjNBB Ur1O1q0zWv8WZ+Q5xjtVLQSBtR8Or6W9T5cSH+LjAKlTYoiKX6M3RhURSRqVqYiGkkbeeg7rwhXw XdgCoVgV+qETyI3V598yIUMTZgfz3QEX6h0Gxi7nrPWT0zeePdLQYYwXY5rq8zifLo3obFl8oL3P jFND2MWAL0wSx32K4Yeqv8R53fAc60yJfzJJmJMWukwf09pCIhQwjWaMyiVbw8TZp0lm6N4mpo9D RLTZZnOPmML0Sw3STFPVAAGbiX6A0tcYQwmFbMPlbsuJV1s+S1Q5bim0fUCw/OVB5ws210/k+dxs uLIgdztREVH3+dFZhMyTrSJeEHoriS76JqL3/A6U6h5tXrkfgldV0E6E8EnGiNYeLErVnMp3Kji3 2iSpwtBIDwg0GAApXj5CtmEIOXZm7Ep98+49WjsRMf/HzG2mSvpc9D0bYjNeSXSi8OXERgcBfRzY cC72u0t0lomV/2MBGG0yXQBl7Hs46HqJNCdZEws5+Iwp57toiz+rI+eOZZWmTV7F92NcBKmpo+WL RpmbN4eh5unfXCPi/ZVN6ATA6fHzIjg20rOc9mjnyLEHAjNIKEsAfABHNeucsjTMVntoremUIikP rTQ00sH40dLC2ck4xwToKrAoGtTCMp5BPzTVqzKl+Av/iQdyZIaxPT8DoBXIY360aeYzXXhvnU78 KzAlQgyitl5ZFFMrs4l9J7w1ju38PeZQv48+Sjvk7zBx5d3RttvShrioXwM1U1hUoPCFxjnK/pT0 FUFx9J7UNb8PgrnS+zxlZmm8ZztIAS3gwZDseG0eZ+1GNCNDwKsXTPOseADtz48kGf5TMas2QsGb CJF87s9YhMOUGJvMMOTeugvkxXjYjAdKtDtrIMQQkWvms+QOAN49r0Gb2vSsgZnvxdhK6+c7Ps3J piEATaC5zNe51tnmEfMYwiBCpq4E7c96NruORNrJz2P+TvaMbKMmhzPkcxUgElTsQ9UiWW0CVDDO myNaipbdv9q8uakNO2QR545HImMS2dGM6PiDmYPvIx5qmhrBFYmWZD8WZbfP8+WFSkbce1dqeg6j nMI/q9NfLoNx+AAQ8LcjITOyHOjeddgHsADA4WcpbT83LFeK1RpEB8JuK80QOtDPmGxErQuwWJ3z VMmb3hy7zWwjX6zx72h+slD5Eh/cox3/vwoqCdtDg4uH9lijy2qza61Msd/7OJvirIIjyJrtG7H7 cOjeTlA1gOQU0WfUdNpuVm+V7iHJZcfcKhGnutRujoOENdp1MMdSp25ditNW9oZEdR9mjNqYZoEj wNDkwPvze1Lvg79p43jujubOcVlKzuwEtKGPI4D4kbnL4rPw0B3UqKL/L7SHzRdvWIQYsOs9zlyt qfXnUQjnbK2lLAn97hgXpq2PH99e0BGhiY9aWRNDsN7jkbX923M1r/5tnaBPJStG3/75v5LGXqEe tp+NEv1VdY/BcIqxYiLZ/z/xiHB647Lo9m+22raPc6QysGCSiu4TxgfhgCY4hcDNBieQtE8fSSTm F9HBRDYhaA25XYxlMpmFx7G40T7XfTxvU269aI/+asN444rGtFUxHY/xxXgMcsDs8yw5MSqvx1HY YZ9ZAEtjmjE4m5rzrJED2qH5/k6hsdcZwJ0pPhERN59tfnpgjdSEfdrCJZ3zg2R10OUaHQ117Vjq N2EjRzz7OYetGJ0C8d8hmWry43c22zzZePgfg7CvyqVeQxf7iPAlfaIldy1c9GZ7BQ9/SNuF5r3c j975X5txPmfAhBpmhTxlZ9/7maFc0gcNPeH4pbE/1VFTW2udFgbf1V2AGr8dfszfg0m1/vCDNx3B 05/RzyUi/m+t9f/OdVXfFmSHlq+xvWCSY0Nodx1Y/ZDGR26POqhrxHbHGXwi7k3vHg50tjUv83QB AYiCJjNahkNYajj7wCTAcXTwrmIjcTqZPkk4LyZd2dd1ybmemovFGIszza6KR4WcUwmVGZ/wGOYG s7CzlF6aO+1BH/8OU86YQnh8c677Of5zXCOX302Ere5LXKd1giY6zKalmJueRXs5xmZagI66Yv6r +BXr2UUGh/QwpPgEnaqhssk1qZK0PCPptULBH5oREWjsSaL5dxb4L+1bShdSBoNLspaty8LnHP5Z OgjEgsSp+q3id3SpU/o/8oS0cPZd1mozzj7PDPK1mm8zk9uGbaquF78bGGBTvkIUHR1/0lBiYptP E4GiL3zF6+gHH+Zb/1eio/kq+6zbZsfGKmc82roo5130RgB6Ex0Iqtoreq7Tr6KfyyUfAlkptbpW nT3ACeKubztzW89WivVuxIcdWlDjWnW6sCSqNsZVE2X3ewGnTXk42SJeoWtbcOpqRIfTi/YpDrU/ 6PFLfRnV8fVw99B5ieizJ8yd031IcKN/LArQ+M6xfkcXFUDSr9XpJg7AHfa51s8C5EAUNfcq4pz/ 8Jve9KzbrxyyaNTn33z2pnWPaAGBCbgj6rIfn42pwDC0yO+gveNIt8jj2tFFG9gIbDiObWPS7/zO t2T9gZ67EUMLmHsl9Uk1VaRVA4o4UZtCNWhYKviebV6jo6MwK3kwEOVN/7N5DjNrdw7PkUbtjZHM QioHgSdsbvrwQZyV77hO701/x5wkFcfHPn9Hb/46WJPj+NrPWmYiI0hhKrAApV9ilDiibUnaFb2x nz67Eyb3aKNqkokxAWZ2PKQ6B79+IhNV10jD0dhJ/SlABwZnvTRXjnMXgMOy0SZCDJrn320KxX7E iGjDSCd5gDYRIzoDo+DslZdAiQ9JFK0j2knn2mjAvKW21mmTuWKfnU0fKTXaQ05OFbhmwuvZHi6T ACJLSryCXF0C1Q45UB/q1CYcWmDvF5VZNPY6RmtVC2NjZkg9X9X2fSfipj7xiRws/V9HQp/MO9Fg mmeOQFeZWNNQtKvjvvxbjSAZFkfCgzyFfx60ijhNmaoNHGc8qhInNR/7RnUMIPuYGQ8GRFwWNvT9 hPMr3230a7qYj37FWfs3ol2Mh8+7OxJrtMj3vuFfQJyneIgG4BSMg5CatJnQaJkJVfV7/Vw0o7CI a50OJH36uuDC6EVYGKeqyWc/QM5ugwV/j64aPs9V8Jkn1Q70zkJFAgSNVyWJltJoxkLPuMPhUI/N U/lwMPDS2fI4TTzT0WktlU4k+ttcqsCw5m3EkA3xNYRtbUh9Fy/WrMxovXdkNZinBk0M0bMB7nPM 5l0J7+LJy8rz26tt2j+R9v9WyrjMAEww5+KTHGb/oqp3pAoGpj1g5OyriI60QDrtNnlKXUZL0+MQ 0Vp9ln23r+Q0BlQtDuO8c/2AnLMNtFUxCppPTFwO+m4b9ygnyv97H2WC6rhAStTKWjbjaHwr0g9L WoPa+WgxzPAWp0RlA/CPhEbDv8dR3sEbH/Ew1WYiZEW0JSwwUTkzQ//cjsy6APtaqEzB4c0x3y3J v1UAMZ9FA9b89Pc6nmvtmL+7WnwXD9CiOYTvHY7JUAle0RJ1ShEjAZgbDNYSjPbKAY0XJpmIcJy3 iPYlqk9rviSuU9rXOs04q+4i6lpP0J/NPUvF8pXoK847Q472XvT/t/nNOJPN25KG0dquNsg6kR8j OIyHTRVjbevchOY8TyrOXLTSTtFCDC1SEXF9Py2OqdXQpFXlfZ2a2vDzwSf580TEDPLMdrxmuAYG O+4RcTji5TgONfMWj0JgOF1sjrL7VyNYwMaVMh2NOvDBKUX1gZSVprJ0yDZBMmAeNBuO93soDRrG 0AYAROBebVL7j2TEHMskLItkn4ZNRWyhNI+ECyYiJx0t7cjnoqD1oZkiqmi04clbNCL2lTSEFn9C 9YDNJNkGad34RMdNXaHTh6nJdpwRfUxEH5l2PMMH5ooO0Saxpr6v0cgcMY2qCLPbzMO6MMPmlApg 8Xj23nVloP1QgA14wOhaRGu7ClJKix9VwmeFCXbYk9TNl21XFpPBnNImf7uAxlAxWmZHnHi+VDmL 6Cp/PtPAMdVvPXvEZUQw17aCcXwazX6K87G2fn+6D8U0Y3xjniy0YVOkvOdks89xFGcwu53jgqHV 2QgVaBPty/lNugAwTD/Dtr8RRAdsMXWd5xZxZk1wcVAdfDNP7Y7jvAIE1lgL4j1PB/TgNa0FtCuf OtulSMNT6soLvvuFjR3RvkURRwsY2pllV0rDTMcU6PcSeUR1N6zIIryvtt9hpIKSkXwi+n1l9cfV cCOa6WNlFunquAAMUbGbnNNnNAhBbKJs0hDGjxQXwy/mA13GeKyRy09iUUMbLppJV0qtcoBTqODP oTnsz9gUcMDsyMsKbY7IItLRUCawcJVwze8P/06aAKbk+HFB7WK0I5aWv5Ol8GXaSaIHPBOPA1aH r5HvzrKxDvhxDYYRyYueJ+QQ8eC5/7I5xjiL7/T9N2eK2Z1OOagdNSSmIVrncVUASu8UDKeFAhkx pBjRUuvpSKn64IyGYecar/qZtr0dV5jLJt6MvM/sZTvxzOfpTIX6qqqHfK3F3h7fi76eUi7GOjwl YHpso11QG2hOm/dc31co2R7tYKNbiDzBqXr36bhDNC9NNHEerprrWOhW9nHwxaT9pN/8G+9pY9un dXiiNGOp4Gin8ANp5gGxi9c6nDRmX0mFSB1JB6KdaAKqBDoXppzQrfz//Bg6rhwp/5z9owEJ/jiY xoTBvJHwNh05AuyxTHSrctK0YW2WMk6brJgQDpISWKvI++609ML6o9G0CniOMRNM2/HQjCCGML/p yIapG7VyDIapd0rQ2+5Kgz6p+CuUliTpjTbxZuL/GS64Jn3gF6N9BBYd47Bls/bDh3xHW9K/2rpr 3eyThv73351jBt+WcrioYSSqNwJELLhxqGlH3UF4gGbZdLEStg3Z20iTfBZf4ThVpnZiELq0TXSE Hv/gkF77uYAxm53xzrQL2nHmQDHiap/INrmRP02hkZ7VBaZD47EG/JObiniI78tYaq8qjDD/eAic 36Fo9+7bni7xMCmPG3kxPSTwWGMAmn9zo5XZtvJO9Bz7YZrnh7ppMJrh/3vyQVWElwBhLodQy/fQ Bg5kVupT9MYKrRv+E+AE6U8Rql2gtbAJboh/oSrrqq1ciMrN0oRxFH3wva7HinYkWaTKeUnCl2of BHFKynEwRxMlzcMOr9GU7zjPW1i1/qi/yLH8X/54oCzaaDCMnc4vteGFOBxqFj86dcGF8CLnuvRM IVY5/l9x4v3W7t4slTbjBYVmGiMajAG6QkxJYDZWflfrobHXCcdc+9+R1yDE/7+vc12OawfRKPI1 mfd/1amT2O7W/GgWLLE746pU7O59kQBx+UCoFR75BFCqAhXyPS7xeElL8KXxrSFrNebdyOCsCId3 S7RmDI6p2NB2290Uo/JnetShlNE0K9Q1UZNw5SsDr70M6+qjw8R/Zkg1oWd+fkGcfLYaxYjoBerD dmCsSwjs26J1eLZ9WOIuEJ/j9FY978g+r2scATPe9Iyb3uFcQAnB0Oi3Sa9BC7tehabF+EH4IvfO zO/zGncvvGtsjvfKxYuO/bwp7ni/7p0o2bOYCQXhsxB/Bp1RslMuHdcRyxzVIKK9PQ+7on/E50Pu PN6992cRAc2X2sMVpIYkvRJngGj0yRDap64rBvG8/Lusz+PPMoe4WT/RlbNGVyDijuzIl2PnCDGe GaF6JYaxOqNOfPO22oU6kk6ysDVnLO1q94l6Li+OiO4A+JLjNZxp62ZrTeyGS/UmgayAmWfsbLmE Ro9HP90qINxnfoD3faPIUDgs/NUuMQiWQRFnp83Pyhtpbvfd8Yoz9uWNRMtOFavCu6UiR4RXFtfV HwAAWA+y8O8YgXzm38g4e3enTy++tY2c7i4y+1yPXX6U/E7c+cC4RZynGez8vTDlcb1XPxrKwf/d n+XnLorzHokqaIvWRHb5CnLNeRpTd9Bv61KbwIaWNILnPsYIEgjPsyOfobPPosCKuGaoAAFr9jgt h5tjOOfirH0VKq7TvcTaAdl7fpck4xhjCSHjHBoa7U2eBh6wML726IkcrYDt0ns/R/0vXtfzh4zY Ans8/9o9OS22M/drZaKQo9dAD7zTrnITEp4S1CkIg5hHvLEbmsVvr1KQOHtpoT2JM5wgw693OQUm cq11FEVGnAgP0LJL4ivZmfcdYENkybTNMLQQHV5juF3+/8l3ZpB3Ua4hGFggW1fcgjfNjYVVSGL0 IivltPcB+xqK3bp2unnzrPayHoPW9A3+A/+4P67JWqDruRmOQfx/EO3vvPeP+FV0yHcizwaKDB1j AGax4nQNXyPiDsLxFVH7DihHoJyhkmJ5E2aNnAiD/5jXwKyhZRnkrxzcV2TbmtUBKROsNjcyr1V5 K2sDmlNWK1oD7+iOI2zuoVzkgP3ElB3q6JjXO5kX0UJoNKyqjJvflbuw8KH1KlEI/XM80PUn2k8n wcb1JB5hPgCGk1+UWNBjF0jUEDAa3IuKReMjk4/E2hZ6lzzkZDDgZpTRh+aDdT1Kb6IX6TyO43M3 chrJE7wc+EUMCVBh2jg8QEnxXbVuYpFo3JUAdqnJkd4Xo/Y6TfR0kY6OGNEr1m4aAsvKP8qNozvb YX4Lvlune1ZWZq50m8k4Cyvn/vI3PXt25PMeeu85cUkM7/qMRtwqeSgalVUQLQ0dM6iZi5lWqcan 6w7NPOjjBYBloQiwhF/KhT3506U9gtV8zszUc+1HXPcAMdfDPYysHTOPNT5b3np8nCVFwZhXu1L2 OiLkuTyZC9ffogEneF1lKMxr6cvJYBAZhPd3MsUMZ8Bz7wRm89gYn997kwoxAYvK1ZowcMV5jJjN 8ty4ZaIcvY40r4KO43QrLq11eJcE1QV7jMd7Pip+iicmXYJyxBNjXiU0+SxOqLJwwzOjPAiQGzEv vWebJnEufngdcS5MFMxl01e6MsRpzpK7PVBoLhzrzNkctTDz35d44Foz7nd84AWJUnDs5u3TB7rG vPlsXd1fnx1yo3oR9OjA0Rl8arb/Vre3r0I+rpMATbTHeRCQHp5PBwxcCZh2z7+/RVj2GAcCkc81 /OkEI742bgaLvky7hOWDhY9waDFBQCNiK12LqtiVMFw2OkUvdC+OlfNyvRn0Qpu/R/bu1Ttw0QzN A14QeDtAds5o9grDHf4bcs3GfK0IXS2L9XTmujQ3rkzKQim41Y2psYrMoxSU7vN8bS2pB/vM+X+v rvD1YZyRv9udsytdjdh3x3WWww/DrBEP7U6ztolfl3aTO8NPIRWhup3xbGtPB7sXDR+nC1X3s8p5 fwqGa7uOxF8S3e14IFolLcdCezFj8nP3A352hMAF92cOOUdX9842+9OaPMtrzHKXZ64aLsex1yK6 jMhuH0KPdfDiZY5zZ5155D0vl5OLedc/ZMjIm2Vhus2u+7vrOu4xCHPsfsWSP+GjPYaLbK9217wd +4VEoQv4ki6XZB1mnQcfZ7vheqyGXO2Toqk8UZtFB78R7afO0vMwAbR4Inph3KN9S/u/zsI72WjY 06iQ77PLExq/M+t7a6NPXN0n3gPD38e1uG74+z6xFsvn3Ybe7FVunt5n4X3XtTDYCVPmN4+Z8w/C tf6xkI/PtRhQbL+iEcS7xmTYfhZx+j11j95Rpw7oMysou9zPUNeqHYvmv2HiSnKBoVfUvxM9WF24 xgpnJf6JLkJ0kB8hE7lOZMoBPyUuhajkd4tJaxHUEdPDXMIU/Ev+QXjiGpfBg6QtvQttjiXkmbga EzAA5nxomSYoczKo8bYfHTlIiFELRH2W47OXeLg7t+iye5DGcrVSkI5qYazH7m3KlVCVBYRelIws zY95OK+F0KzHEGs7AGgbCUg22v3Oz52nQEl+mRfRyqU6sUuYyWkhO3SpqW2++Uxvr+Y+QA0XPebX XbiYc/xKuarEpy1JRCwysUxwrS4su0UXxiFEgQBJG+FSGTGoiSbxvjVBmOJyELTZr7ymmBAPrXEz QyWAF7QDRq/2SyM6DmLRrOiq5QOeXZ1B/pZQOODe0ZUCVZAZZ77G2ghoEqi2Ptd1uFcOTIGWrUAM krCgIlrYiGUKqYOO8HVfy0suLpyEBEvjSmJoQbYaOq14FFxW2Th0Dwm5FuFO2SBwt6uLPLjEiFik FK+sDvHmd5zlS0s8ho4HdLw7VDgaEga1dPmh/bq36L3mlfVc65rVzt8/9ILDXIvxhwne7ZKhIY1I gFCt1QHXs12P/4KCJ5rlrG6sEXPkbRZUP7+SYiLkHs/m/jpVNVrY3GkkxMjKcG9Bs+t0e3BBp+U8 jhATk7kO95PyeawVggnyFZF7c7SoV/4++X2Rg311qZYXVii+05xMA9xKy4UThk4hgC451jQvvQce mP6IGbF+IQWldxZyZznbe7/ZnPLvWxPH5+RhHBJD3RPJvC804BpoD9bAxOR50ggunTZUCnMwwVgX GB1xBuWRBOC691B58yDoys/Z2Qgax4Iv0GGfCdLb7i0AWM8vzc/x1Mt+VA7bspB0c1b9ODySZ+bv 5GagbcGgW4G0GMtuvz+hCgUpF7sUM5bAi6jOM/msr7z/Zz9cql/rXBzvWhxlAZNOnID8quf7ZF2s D7xDcYCgsmi+RZd70haXaWbOPSFQN1z1H2gtJWP6cN8D4dXKN85/yRdIaBzUUDpwwI1L+yR07U3X vI3/K1sfp8bkXvf1PYIvTagSRgjfP6wX+L3x/nJhJBReTMyjykJEE1sPFl2NR/OrABAGxFnDFYMW BRJoMT3bicczCLJtbWzBcaUPq/yEhnObsZ9BjsB5npfx7lm6g0X/nu+1FdT7EfCKLbE00R3+OS+G H8egdqste57P0+RzfsR4v/Z+9MXaFoLdTdvqIesMtFkUKzXnn7zem4AiCVa7B1MD2nIwCVswrAT5 FMbxrd8jHiUJVIi6neiBl8vKsdOuWofmM141rtJ4CKoYVrB0dJ6D+R1zgdFLVaI5x/Lld2PuEe2S FkKWFoFNZu9o6OhF5rKQnziBBZ7pYLx2c2L9sMpo6N0lJaUU4IG0uEtk5k9ZAr2P0hJfDy9e8ndX +YLEQStn91c+y2hcxZKrvZEQLYl1iU+xSk5v1MYt8Qyv4W2WmkR0EZ9LBup/tEQocB1a0rkGYov3 HAhBnPMV0/fHMh2VpvqOn2M3XDKSdpY8G23vOYTedWi7J3MrNEM0WuvUkC6ZKOsVI8O+rj4187Sr MTX4paJ3de6nOoQwV1vOvJ6OIig1a3J8eu+fx5W0tp35nWJHXGFX57zuek7EabGLh9Gu/YqIX+tx /svsswWttq51VUNZ6qQv1RpWPrZEH6tbsP6OTl4HvOC9azAFxGbva6CG3/+jAR3tGmMIYN73rIXm ig5+/c5Zo+XBmhBVN5bX2NRb4GDGa8Slf+8sqbB/boEo6FvCDx2wthC7Tq7SIvQiLQZocVF1cNmw k/eDvEVeT4UxyuBXPuM2nvcWnXEmiF3j2Z7jkediLNGK7pmyci7IC955BdAl/320/5lCPvhaMem4 xy6necI4AToAIabrv9YVBDrotPd+oywDgQNNeebfgzuX3zwXhxmMsEsgOLmI4LYer8mX1hsMhAH3 8bd9X7RkJfs0PlxDxu2yci9ydwGh4vNrWIW7nufEmvvDMq8dJ1J01GXpuRdrkvM3Kub3ObmJRn2L M05j0R3dE209mS/verIIZmFnIW5PxjmLHUuJyQqVv6/PvHNzegAez4EQjnkUcCQaWTG5ePWoDhi8 c3z0HvE4/gBGogkvmmJ1PY2TaYbajFBVDBLt82G6XRHKez+fWZjdLt4hJGv1SblxdhN08sm9aqs8 n7+H5jo0/+6E31rZcX2fe7bfRQeDA6/J4NtqX7q02m4Ei8+PoFBj9+4/KwUrB8cCvJ96JizhV77X IAS1X+US6pmfon0dk7CEOIWy+dA95+wFhNDOuChCfYF318z97L1/5fuAkj3XAi1WbzlwXLWSZmXp WNgswuT9W97v/FN4PNBe7707g41mIrD7lRezJ6BMYXQyyb4+kB6DpeziPoSmILwkrM8Fp7ZmEhYN +rYbNkbQyi1aHawZqn6NLsBjDMbqa/Ej+HmNF6lLTPC50dIohVsSGlgzUkjf8z2GgWch3gs0jXZF qqXQaoCitt/yeQoF7l797LNiNz+qyglAAm8FpvuhodqKAfKat0Fr4FxoRTL3J9KlXeuI8QA1nITE bYSfKBPiB+85OloR7YZ4uf81LRJlOsgt+2FQaEZm7ZLeo6tCviPipU74GQzErOI7Hic/icHOwhrJ etFnlbuQGS/thSaReXQbn8ro5/PoLPKemusr4jjjpALF3Z0rYFhVzWqcaJi9G/EyyIAw79Rs5Sqt rliFobhex/6ZpQN3orXhys+8Aar6Va0uiYmkPQL4qjFVXML7V8d0S1r4gKQ1j6/V9W736MpqBJ+8 BQvjrjHWz+A5saQRPd5517t28mO6zd96Louf/Rn3dcK7eDI7WgagAW1+Kkue99IVf6JwJFNdWbEi HkewvYyVSaD3LaaUllxnbY8feNfgK1ssV2Fqn0qU5T2v8RB8SlNuur528+Uk/wzmFoQaHZxV0Jra 679o68XPS7ocAAkfq+MIaIGlc7LUZTUwCgYVVIqFlXUqf3f1lgCs296PpCLdRiz4LDq7WwjiLZ95 LI5UBlhIaMiifvZTcGv+FDih9x4LDctiS7bbNbvpOysulO/faAi2FFV0EhAvBZ4XxK95Vc7EnkHO 8y+8j6FE85qS17z3cwvqDoAcCXDBYJrUkdUWASbll8WmAAAI0klEQVR0d4En9ZI6zCY6kIxobQqO Twm1y9dXtFXxbkMm6EVa6JMmP5EPQ9G36C71s5IUC1ZB+JgblnQtnZg7hKG06DqTdzAUunHtDLqX hGwm9GZ1cyE6uobF/ayBBND8Z3RZEdoYmiJ81vIHzBxtMffOOrql/RirUShoYdh4nnbrpGcBN4Oe 5KFQIlv3vEZXlx9l77tjEit9OtoYILlNWpewQRARKzQgBzelIaJ9YiwRJSUETMdZFNEoGL24GBDW wau8Em35eSVvYADMiTiTT5obFckba5PXs9npK/pcwL07cfaj+2uTlebGhq1qu5MPmIfjLH3uxeXY L6L3SHi/ScGV0ta09iEBe9msxE/OlXL30DNw7wqN2tcNW04OOy/irQc+TzIiN7jtXa2QaiuA5gKd vJcndJ2fZ9oSF71GeyokBvFs/kjBTvg/uG91JTUhxHc8FlZtlBKdqkXlCkG41krRezOO/enSOJf9 4OuEaY84JU7tySRYkLgdZgrBW51BYi3BhEIaFI0e2uue3/+RFalY4InmLa0vIWTxsj2A+ArEzLBq LbpQF5VoIUYQrJgKFdM8VvSxDj8R8Xut9b/5XbVhinbdjj0fzC9/d4wHDb2vZsZIX5Hboy1o1rC6 fyZA7apw7RLf0eARLfxYUddnGY3ElXUL1Q3fdyc+Df3jcpq/bvvEc22JGMuDxzB4CJdN55Ho0uAr W7oa43eSqYgVLUxTkF1iYXfpgtX7d030WeMCCPc/EfFnMornrvU0g05Sy+9x5TFQ8zO3peK16IVx ZLfzOhjpTDAL7ucJjeapTghUcM8TWh4uSZznDIbun7Vdfob5zviOnYbi0VqdyzjOLtEc7/+P7LxE H2Fx8HEs5GcC/+yzi/s2FZ6fN/hWLl4kzAsjjCqsaJQBgtuHdmyCW8IqZEIETgeKwu+7EYXSHrYI +9rl3YussO006eU+yOz/x1jyGiqLS1NNgq7HvvsZxNpFPNqbTm2dLtst2kUzmuMMrhvcYR3KHWRM WKLdNWK4B64BY5EDoJjunysrjfMz9sBU7VPyzlWxtQhFCxAtW8mPrbhhtytTqBaKZaliNnrx06cX N+vvtmvTsK0XrYEDB/zU0VW3+t37RNyHoCy45KvyXnyf7/5Z63H8QUTnK/AX70ub6xmENMBajewA vSJ4LJJjk83uBNBtPyDabxE1Qn2KojWStbJNO5At7gsLzeey25c2QsIzQG2c9PNxBFXOz/WrDxal leXeWf4tokNH6ID12DLvKAi06E56lxZfXXxXSgam5xApeX+XINTY877qQJPX/Ula4KYYEXJs5E1a 9+h938QvzKMqLzQuFk0hkBo3wluNpVc3ry4hRplpHCg2H/FQ+Ywpa6vzIOTbaqHmtSCRWHryb25Q /ntn25+X6KI2uwKOC/ixT3pBTsQgJmuNi+Dfx3tcNuH32fy62UEkERBqu0jEL/f5njE+FsLhog1t xTsPDSPCswvO4zLcWqDHeHctrHX2grLFOQLbMcZ5nLJd0gIQpIm3NH2YNtEulgN9lMLlO1k9o4iu UYvoGMByVBnufMal46JoQPHkdC0dJ7BAKxTQ/Nnj/tQt9rslO6QGKs6NjF+NTTvYqXqsSRCItrpK 9ydOAWYyd5g1hUPvdAvLY4fcat/VzHHdjhdGvSLO0nEXnv1a3bjOkDGVn96HUqZ3nb5tQbxj/ktC intioXV5zKRDxW7QWdf9Wg9gYQpiIVASGgs01qC6j0QHn0cxaLQVKGuH5h3v8EI3yBDRVh6az17L zyBjtPvfIX92xw2mOL49BJsFFVflCq2QA8s0ssJ8TA9aQN0Lpl3tirizHJMoiGx3Esswax3vlQJc 6Iy0dWmzHDiWg++MZk2C3lKogRF/S5ConiX7/JMmFq0Pw0HW1upuGi/RfadKo0TnZ9gzgUmHmGhP tODn+L6SaNEZ/tlrC3/btWlcSy0WwuN4IUT3WnxasJ/5OS0+38wTWRSEgfECh1Mn5i6KtSBWu2MR WaIh2te4xMsS7LwXS/8aD+i+ThLYXRxJ3GAUjmsKtoZuuw9JetH7bY25F3TxNR6KsRKrq7P1JDDv e+/30gJ6IMzEx5u7CslbHC+XUPI3/mA1P9aKZgVXthlCITQ8P5/zkcSEKF8SMAJIUCgEs+qFYOru raEH4hbtEpDLqaPaVsdCFpqZs6AwkJqfCpZZqPk7RXrOq4R+d3EdymlHY/+OAyYIgHL6b3Vg7goH ivJeNIdCcLQY4CMKa1oP+H4E5bZ8PGMoWBr/ocBQxD6SD/oCFtQi0Dhq6/DumK+Szzk/qiIMcaM0 GP/XWpcmc8hU8aHMl7SaO38QnHvyEN4oU1mLZByWoeBe/o+ojhf47whMbYPNiVIoSV7FSSIIxsYa BNE1TKA/Pp2K4JjgvjLu+pz6KHcDPMr2JWDAtg5wv9fZnjVCgpzze8t34gocKMtu/9vNFIxQ0Qap qgCiLaWTfhFd4gOAUsDI6q6WlI64CBW5wIU29B7RC+nYEZjfueTDZ6lXXgwrKQXgeq1bSID1XLut uNLvWnyuAHA/hZeUIZSj4+YDtYTOKGAjABHnngKSOY4pQH3s3xbUFy0k9j9xD2jSxY/bl0a0huDf UV+U1/Ad5Qa/16MIjWvKMokIjH2tM5449kYzpqXW+kMxhO51AHycWxLnYpg5kAqi829iIeqm3L/q iME0j4g49p4UTUJlPasDdZfTfPC76RCtDO+6l3IS1yY5h+E5HklbyYWTdt63gYtN02yDFUf+jO/z 2Sjvslq7kUgWg/lUc1hnPsW7WqvyA9pGe0nvLJAXfRhx+n/ObhLtb11/6Qouht2nkDwhIpO7ZGjz 92omLAK69sqd+VgYE0n51xFdpS0gYJwLdmb2jZjM+qs6dCcUjw2mEJQ6CK58QY5t1sN54dPI2ovo aDCh37mHJhV2MbBczxp8H+eYRC/ASgCPBf8Rj/jOybbta3fuepSgl/ZfQqwQXFnFY4fneKbpSmxj vlkxzgX68mQuBgpKLv8P0oHvWrPfJEIAAAAASUVORK5CYII= "/>
</svg>
