<?xml version="1.0" encoding="UTF-8"?>
<svg version="1.1" viewBox="0 0 32 32" xmlns="http://www.w3.org/2000/svg" xmlns:cc="http://creativecommons.org/ns#" xmlns:dc="http://purl.org/dc/elements/1.1/" xmlns:rdf="http://www.w3.org/1999/02/22-rdf-syntax-ns#">
	<defs>
		<style id="current-color-scheme" type="text/css">.ColorScheme-Text { color:#0000FF; }
			.ColorScheme-Highlight { color:#FF00FF; }</style>
	</defs>
	<metadata>
		<rdf:RDF>
			<cc:Work rdf:about="">
				<dc:format>image/svg+xml</dc:format>
				<dc:type rdf:resource="http://purl.org/dc/dcmitype/StillImage"/>
				<dc:creator>
					<cc:Agent>
						<dc:title>obnosim</dc:title>
					</cc:Agent>
				</dc:creator>
				<cc:license rdf:resource="http://creativecommons.org/licenses/by-sa/3.0/"/>
			</cc:Work>
			<cc:License rdf:about="http://creativecommons.org/licenses/by-sa/3.0/">
				<cc:permits rdf:resource="http://creativecommons.org/ns#Reproduction"/>
				<cc:permits rdf:resource="http://creativecommons.org/ns#Distribution"/>
				<cc:requires rdf:resource="http://creativecommons.org/ns#Notice"/>
				<cc:requires rdf:resource="http://creativecommons.org/ns#Attribution"/>
				<cc:permits rdf:resource="http://creativecommons.org/ns#DerivativeWorks"/>
				<cc:requires rdf:resource="http://creativecommons.org/ns#ShareAlike"/>
			</cc:License>
		</rdf:RDF>
	</metadata>
	<g id="expander-left" class="ColorScheme-Text" style="opacity:.875">
		<path d="m111-75-5 4 5 4z" style="fill:currentColor"/>
	</g>
	<g id="expander-down" class="ColorScheme-Text" style="opacity:.875">
		<path d="m99-79 4 5 4-5z" style="fill:currentColor"/>
	</g>
	<g id="expander-right" class="ColorScheme-Text" style="opacity:.875">
		<path d="m95-67 5-4-5-4z" style="fill:currentColor"/>
	</g>
	<g id="expander-up" class="ColorScheme-Text" style="opacity:.875">
		<path d="m107-63-4-5-4 5z" style="fill:currentColor"/>
	</g>
	<g id="notification-inactive" class="ColorScheme-Text" style="opacity:.875">
		<rect width="32" height="32" style="fill:none"/>
		<path d="m4 4c-1.11 0-2 0.89-2 2v19c0 1.1 0.89 2 2 2h8l4 4 4-4h8c1.1 0 2-0.9 2-2v-19c0-1.11-0.9-2-2-2zm2.5 5h19c0.3 0 0.5 0.22 0.5 0.5s-0.2 0.5-0.5 0.5h-19c-0.28 0-0.5-0.22-0.5-0.5s0.22-0.5 0.5-0.5zm0 4h19c0.3 0 0.5 0.2 0.5 0.5s-0.2 0.5-0.5 0.5h-19c-0.28 0-0.5-0.2-0.5-0.5s0.22-0.5 0.5-0.5zm0 4h19c0.3 0 0.5 0.2 0.5 0.5s-0.2 0.5-0.5 0.5h-19c-0.28 0-0.5-0.2-0.5-0.5s0.22-0.5 0.5-0.5zm0 4h19c0.3 0 0.5 0.2 0.5 0.5s-0.2 0.5-0.5 0.5h-19c-0.28 0-0.5-0.2-0.5-0.5s0.22-0.5 0.5-0.5z" style="fill:currentColor"/>
	</g>
	<g id="notification-disabled" class="ColorScheme-Text" style="opacity:.875">
		<rect x="32" width="32" height="32" style="fill:none"/>
		<path d="m36 4c-1.1 0-2 0.89-2 2v19c0 1.1 0.9 2 2 2h8l4 4 4-4h8c1.1 0 2-0.9 2-2v-19c0-1.11-0.9-2-2-2zm2.5 5h19c0.3 0 0.5 0.22 0.5 0.5s-0.2 0.5-0.5 0.5h-19c-0.3 0-0.5-0.22-0.5-0.5s0.2-0.5 0.5-0.5zm0 4h19c0.3 0 0.5 0.2 0.5 0.5s-0.2 0.5-0.5 0.5h-19c-0.3 0-0.5-0.2-0.5-0.5s0.2-0.5 0.5-0.5zm0 4h19c0.3 0 0.5 0.2 0.5 0.5s-0.2 0.5-0.5 0.5h-19c-0.3 0-0.5-0.2-0.5-0.5s0.2-0.5 0.5-0.5zm0 4h19c0.3 0 0.5 0.2 0.5 0.5s-0.2 0.5-0.5 0.5h-19c-0.3 0-0.5-0.2-0.5-0.5s0.2-0.5 0.5-0.5z" style="fill:currentColor"/>
	</g>
	<g id="notification-empty" class="ColorScheme-Highlight" style="opacity:.875">
		<rect x="64" width="32" height="32" style="fill:none"/>
		<path d="m68 4c-1.1 0-2 0.89-2 2v19c0 1.1 0.9 2 2 2h8l4 4 4-4h8c1.1 0 2-0.9 2-2v-19c0-1.11-0.9-2-2-2z" style="fill:currentColor"/>
	</g>
	<g id="notification-progress-inactive" class="ColorScheme-Text" style="opacity:.375">
		<rect x="32" y="32" width="32" height="32" style="fill:none"/>
		<circle cx="48" cy="48" r="14.5" style="fill:none;stroke:currentColor"/>
	</g>
	<g id="notification-active" class="ColorScheme-Highlight" style="opacity:.875">
		<rect y="32" width="32" height="32" style="fill:none"/>
		<path class="ColorScheme-Text" d="m4 36c-1.11 0-2 0.9-2 2v19c0 1.1 0.89 2 2 2h8l4 4 4-4h8c1.1 0 2-0.9 2-2v-17.3a4.5 4.5 0 0 1-1.5 0.3 4.5 4.5 0 0 1-4.5-4h-20zm2.5 5h19c0.3 0 0.5 0.2 0.5 0.5s-0.2 0.5-0.5 0.5h-19c-0.28 0-0.5-0.2-0.5-0.5s0.22-0.5 0.5-0.5zm0 4h19c0.3 0 0.5 0.2 0.5 0.5s-0.2 0.5-0.5 0.5h-19c-0.28 0-0.5-0.2-0.5-0.5s0.22-0.5 0.5-0.5zm0 4h19c0.3 0 0.5 0.2 0.5 0.5s-0.2 0.5-0.5 0.5h-19c-0.28 0-0.5-0.2-0.5-0.5s0.22-0.5 0.5-0.5zm0 4h19c0.3 0 0.5 0.2 0.5 0.5s-0.2 0.5-0.5 0.5h-19c-0.28 0-0.5-0.2-0.5-0.5s0.22-0.5 0.5-0.5z" style="fill:currentColor"/>
		<circle class="ColorScheme-Highlight" cx="28.5" cy="35.5" r="3.5" style="fill:currentColor"/>
	</g>
	<g id="22-22-notification-inactive" class="ColorScheme-Text" style="opacity:.875">
		<rect x="-4" y="-76" width="22" height="22" style="fill:none"/>
		<path d="m-1-74c-1.1 0-2 0.9-2 2v13c0 1.1 0.9 2 2 2h5l3 3 3-3h5c1.1 0 2-0.9 2-2v-13c0-1.1-0.9-2-2-2zm1.5 4h13c0.3 0 0.5 0.2 0.5 0.5s-0.2 0.5-0.5 0.5h-13c-0.3 0-0.5-0.2-0.5-0.5s0.2-0.5 0.5-0.5zm0 4h13c0.3 0 0.5 0.2 0.5 0.5s-0.2 0.5-0.5 0.5h-13c-0.3 0-0.5-0.2-0.5-0.5s0.2-0.5 0.5-0.5zm0 4h13c0.3 0 0.5 0.2 0.5 0.5s-0.2 0.5-0.5 0.5h-13c-0.3 0-0.5-0.2-0.5-0.5s0.2-0.5 0.5-0.5z" style="fill:currentColor"/>
	</g>
	<g id="22-22-notification-empty" class="ColorScheme-Highlight" style="opacity:.875">
		<rect x="40" y="-76" width="22" height="22" style="fill:none"/>
		<path d="m43-74c-1.1 0-2 0.9-2 2v13c0 1.1 0.9 2 2 2h5l3 3 3-3h5c1.1 0 2-0.9 2-2v-13c0-1.1-0.9-2-2-2z" style="fill:currentColor"/>
	</g>
	<g id="22-22-notification-progress-inactive" class="ColorScheme-Text" style="opacity:.375">
		<rect x="18" y="-54" width="22" height="22" style="fill:none"/>
		<circle cx="29" cy="-43" r="9.5" style="fill:none;stroke:currentColor"/>
	</g>
	<g id="22-22-notification-disabled" class="ColorScheme-Text" style="opacity:.875">
		<rect x="18" y="-76" width="22" height="22" style="fill:none"/>
		<path d="m21-74c-1.1 0-2 0.9-2 2v13c0 1.1 0.9 2 2 2h5l3 3 3-3h5c1.1 0 2-0.9 2-2v-13c0-1.1-0.9-2-2-2zm1.5 4h13c0.3 0 0.5 0.2 0.5 0.5s-0.2 0.5-0.5 0.5h-13c-0.3 0-0.5-0.2-0.5-0.5s0.2-0.5 0.5-0.5zm0 4h13c0.3 0 0.5 0.2 0.5 0.5s-0.2 0.5-0.5 0.5h-13c-0.3 0-0.5-0.2-0.5-0.5s0.2-0.5 0.5-0.5zm0 4h13c0.3 0 0.5 0.2 0.5 0.5s-0.2 0.5-0.5 0.5h-13c-0.3 0-0.5-0.2-0.5-0.5s0.2-0.5 0.5-0.5z" style="fill:currentColor"/>
	</g>
	<g id="22-22-notification-active" class="ColorScheme-Highlight" style="opacity:.875">
		<rect x="-4" y="-54" width="22" height="22" style="fill:none"/>
		<path class="ColorScheme-Text" d="m-1-52c-1.1 0-2 0.9-2 2v13c0 1.1 0.9 2 2 2h5l3 3 3-3h5c1.1 0 2-0.9 2-2v-11.3a3.5 3.5 0 0 1-1.5 0.3 3.5 3.5 0 0 1-3.5-3.5 3.5 3.5 0 0 1 0-0.5h-13zm1.5 4h13c0.3 0 0.5 0.2 0.5 0.5s-0.2 0.5-0.5 0.5h-13c-0.3 0-0.5-0.2-0.5-0.5s0.2-0.5 0.5-0.5zm0 4h13c0.3 0 0.5 0.2 0.5 0.5s-0.2 0.5-0.5 0.5h-13c-0.3 0-0.5-0.2-0.5-0.5s0.2-0.5 0.5-0.5zm0 4h13c0.3 0 0.5 0.2 0.5 0.5s-0.2 0.5-0.5 0.5h-13c-0.3 0-0.5-0.2-0.5-0.5s0.2-0.5 0.5-0.5z" style="fill:currentColor"/>
		<circle class="ColorScheme-Highlight" cx="15.5" cy="-51.5" r="2.5" style="fill:currentColor"/>
	</g>
</svg>
