<?xml version="1.0" encoding="UTF-8"?>
<svg version="1.0" viewBox="0 0 70 20" xmlns="http://www.w3.org/2000/svg" xmlns:cc="http://creativecommons.org/ns#" xmlns:dc="http://purl.org/dc/elements/1.1/" xmlns:rdf="http://www.w3.org/1999/02/22-rdf-syntax-ns#" xmlns:xlink="http://www.w3.org/1999/xlink">
	<metadata>
		<rdf:RDF>
			<cc:Work rdf:about="">
				<dc:format>image/svg+xml</dc:format>
				<dc:type rdf:resource="http://purl.org/dc/dcmitype/StillImage"/>
				<dc:creator>
					<cc:Agent>
						<dc:title>obnosim</dc:title>
					</cc:Agent>
				</dc:creator>
				<cc:license rdf:resource="http://creativecommons.org/licenses/by-sa/3.0/"/>
			</cc:Work>
			<cc:License rdf:about="http://creativecommons.org/licenses/by-sa/3.0/">
				<cc:permits rdf:resource="http://creativecommons.org/ns#Reproduction"/>
				<cc:permits rdf:resource="http://creativecommons.org/ns#Distribution"/>
				<cc:requires rdf:resource="http://creativecommons.org/ns#Notice"/>
				<cc:requires rdf:resource="http://creativecommons.org/ns#Attribution"/>
				<cc:permits rdf:resource="http://creativecommons.org/ns#DerivativeWorks"/>
				<cc:requires rdf:resource="http://creativecommons.org/ns#ShareAlike"/>
			</cc:License>
		</rdf:RDF>
	</metadata>
	<defs>
		<style id="current-color-scheme" type="text/css">.ColorScheme-Text { color:#0000FF; }</style>
		<g class="ColorScheme-Text">
			<linearGradient id="linearGradient4723" x1="50.5" x2="50.5" y1="-13" y2="-2.9998" gradientTransform="matrix(1,0,0,1.4,-32,1.2)" gradientUnits="userSpaceOnUse" xlink:href="#linearGradient4709"/>
			<linearGradient id="linearGradient4709">
				<stop style="stop-color:currentColor;stop-opacity:.33" offset="0"/>
				<stop style="stop-color:currentColor;stop-opacity:.21" offset="1"/>
			</linearGradient>
			<linearGradient id="linearGradient4731" x1="37.5" x2="37.5" y1="-13" y2="-2.9998" gradientTransform="matrix(1 0 0 1.4 -36 1.2)" gradientUnits="userSpaceOnUse" xlink:href="#linearGradient4709"/>
			<linearGradient id="linearGradient4715" x1="44" x2="44" y1="-13" y2="-3" gradientTransform="matrix(1.4,0,0,1.4,-51.6,1.2)" gradientUnits="userSpaceOnUse" xlink:href="#linearGradient4709"/>
			<linearGradient id="linearGradient4498" x1="85" x2="85" y2="16" gradientTransform="matrix(1.4,0,0,-1.4,-84,21.2)" gradientUnits="userSpaceOnUse" xlink:href="#linearGradient4709-6"/>
			<linearGradient id="linearGradient4709-6">
				<stop style="stop-color:currentColor;stop-opacity:.32941" offset="0"/>
				<stop style="stop-color:currentColor;stop-opacity:.21176" offset="1"/>
			</linearGradient>
			<linearGradient id="linearGradient4508" x1="85" x2="85" y2="16" gradientTransform="matrix(1.4,0,0,-1,-84,16)" gradientUnits="userSpaceOnUse" xlink:href="#linearGradient4709-6"/>
			<linearGradient id="linearGradient4566" x1="85" x2="85" y2="16" gradientTransform="matrix(.3 0 0 -1.4 1 21.2)" gradientUnits="userSpaceOnUse" xlink:href="#linearGradient4709-6"/>
			<linearGradient id="linearGradient4570" x1="85" x2="85" y2="16" gradientTransform="matrix(.3 0 0 -1.4 18 21.2)" gradientUnits="userSpaceOnUse" xlink:href="#linearGradient4709-6"/>
			<linearGradient id="linearGradient2434" x1="85" x2="85" y2="16" gradientTransform="matrix(1,0,0,-1,-52,16)" gradientUnits="userSpaceOnUse" xlink:href="#linearGradient4709-6"/>
			<linearGradient id="linearGradient2436" x1="85" x2="85" y2="16" gradientTransform="matrix(1,0,0,-1,-48,16)" gradientUnits="userSpaceOnUse" xlink:href="#linearGradient4709-6"/>
			<linearGradient id="linearGradient2438" x1="85" x2="85" y2="16" gradientTransform="matrix(1,0,0,-1,-52,20)" gradientUnits="userSpaceOnUse" xlink:href="#linearGradient4709-6"/>
			<linearGradient id="linearGradient2440" x1="85" x2="85" y2="16" gradientTransform="matrix(1,0,0,-1,-48,20)" gradientUnits="userSpaceOnUse" xlink:href="#linearGradient4709-6"/>
			<linearGradient id="linearGradient2442" x1="85" x2="85" y2="16" gradientTransform="matrix(1.4,0,0,-1,-84,20)" gradientUnits="userSpaceOnUse" xlink:href="#linearGradient4709-6"/>
		</g>
	</defs>
	<rect id="hint-stretch-borders" x="-6" y="-7" width="3" height="3" style="fill:#278000"/>
	<g id="raised-center" class="ColorScheme-Text">
		<rect x="53" y="3" width="14" height="14" style="fill-rule:evenodd;fill:currentColor;opacity:.0625"/>
	</g>
	<g id="raised-topleft" class="ColorScheme-Text">
		<path d="m53 0a3 3 0 0 0-3 3h3z" style="fill-rule:evenodd;fill:currentColor;opacity:.0625"/>
		<path d="m53 0a3 3 0 0 0-3 3h1c0-1.108 0.892-2 2-2z" style="fill-rule:evenodd;fill:currentColor;opacity:.0625"/>
	</g>
	<g id="raised-top" class="ColorScheme-Text">
		<rect x="53" width="14" height="3" style="fill-rule:evenodd;fill:currentColor;opacity:.0625"/>
		<path d="m53 0v1h14v-1z" style="fill-rule:evenodd;fill:currentColor;opacity:.0625"/>
	</g>
	<g id="raised-topright" class="ColorScheme-Text">
		<path d="m67 0a3 3 0 0 1 3 3h-3z" style="fill-rule:evenodd;fill:currentColor;opacity:.0625"/>
		<path d="m67 0v1c1.108 0 2 0.892 2 2h1a3 3 0 0 0-3-3z" style="fill-rule:evenodd;fill:currentColor;opacity:.0625"/>
	</g>
	<g id="raised-right" class="ColorScheme-Text">
		<rect x="67" y="3" width="3" height="14" style="fill-rule:evenodd;fill:currentColor;opacity:.0625"/>
		<path d="m69 3v14h1v-14z" style="fill-rule:evenodd;fill:currentColor;opacity:.0625"/>
	</g>
	<g id="raised-bottomright" class="ColorScheme-Text">
		<path d="m70 17a3 3 0 0 1-3 3v-3z" style="fill-rule:evenodd;fill:currentColor;opacity:.0625"/>
		<path d="m69 17c0 1.108-0.892 2-2 2v1a3 3 0 0 0 3-3z" style="fill-rule:evenodd;fill:currentColor;opacity:.0625"/>
	</g>
	<g id="raised-bottom" class="ColorScheme-Text">
		<rect x="53" y="17" width="14" height="3" style="fill-rule:evenodd;fill:currentColor;opacity:.0625"/>
		<path d="m53 19v1h14v-1z" style="fill-rule:evenodd;fill:currentColor;opacity:.0625"/>
	</g>
	<g id="raised-bottomleft" class="ColorScheme-Text">
		<path d="m50 17a3 3 0 0 0 3 3v-3z" style="fill-rule:evenodd;fill:currentColor;opacity:.0625"/>
		<path d="m50 17a3 3 0 0 0 3 3v-1c-1.108 0-2-0.892-2-2z" style="fill-rule:evenodd;fill:currentColor;opacity:.0625"/>
	</g>
	<g id="raised-left" class="ColorScheme-Text">
		<rect x="50" y="3" width="3" height="14" style="fill-rule:evenodd;fill:currentColor;opacity:.0625"/>
		<path d="m50 3v14h1v-14z" style="fill-rule:evenodd;fill:currentColor;opacity:.0625"/>
	</g>
	<g id="sunken-center" class="ColorScheme-Text">
		<rect transform="scale(1,-1)" x="3" y="-17" width="14" height="14" style="fill:url(#linearGradient4715)"/>
	</g>
	<g id="sunken-topleft" class="ColorScheme-Text">
		<path d="m3 0c-1.662 0-3 1.338-3 3h3z" style="fill:currentColor;opacity:.21"/>
		<path d="m3 0c-1.657 0-3 1.343-3 3 0-0.552 1.343-1 3-1z" style="opacity:.125"/>
	</g>
	<g id="sunken-topright" class="ColorScheme-Text">
		<path d="m17 0c1.662 0 3 1.338 3 3h-3z" style="fill:currentColor;opacity:.21"/>
		<path d="m17 0v2c1.6569 0 3 0.44772 3 1 0-1.6569-1.3431-3-3-3z" style="opacity:.125"/>
	</g>
	<g id="sunken-bottomleft" class="ColorScheme-Text">
		<path d="m3 20c-1.662 0-3-1.338-3-3h3z" style="fill:currentColor;opacity:.33"/>
		<path d="m3 20c-1.662 0-3-1.338-3-3 0 1.108 1.338 2 3 2z" style="fill:currentColor;opacity:.125"/>
	</g>
	<g id="sunken-bottomright" class="ColorScheme-Text">
		<path d="m17 20c1.662 0 3-1.338 3-3h-3z" style="fill:currentColor;opacity:.33"/>
		<path d="m17 20v-1c1.662 0 3-0.892 3-2 0 1.662-1.338 3-3 3z" style="fill:currentColor;opacity:.125"/>
	</g>
	<g id="sunken-top" class="ColorScheme-Text">
		<rect transform="rotate(90)" y="-17" width="3" height="14" style="fill:currentColor;opacity:.21;stroke-width:1.1832"/>
		<path d="m3 0v2h14v-2h-14z" style="opacity:.125;stroke-width:1.1832"/>
	</g>
	<g id="sunken-left" class="ColorScheme-Text">
		<rect transform="scale(1,-1)" y="-17" width="3" height="14" style="fill:url(#linearGradient4731)"/>
	</g>
	<g id="sunken-bottom" class="ColorScheme-Text">
		<rect transform="matrix(0,-1,-1,0,0,0)" x="-20" y="-17" width="3" height="14" style="fill:currentColor;opacity:.33;stroke-width:1.1832"/>
		<path d="m3 20v-1h14v1h-14z" style="fill:currentColor;opacity:.125;stroke-width:1.1832"/>
	</g>
	<g id="sunken-right" class="ColorScheme-Text">
		<rect transform="scale(1,-1)" x="17" y="-17" width="3" height="14" style="fill:url(#linearGradient4723)"/>
	</g>
	<g id="plain-center" class="ColorScheme-Text">
		<path d="m28 3v14h14v-14z" style="fill:url(#linearGradient4498)"/>
	</g>
	<g id="plain-topleft" class="ColorScheme-Text">
		<path d="m28 0c-1.662 0-3 1.338-3 3h3z" style="fill:url(#linearGradient2434)"/>
		<path d="m28 0c-1.662 0-3 1.338-3 3h1c0-0.554 0.892-1 2-1z" style="opacity:.125"/>
	</g>
	<g id="plain-topright" class="ColorScheme-Text">
		<path d="m42 0v3h3c0-1.662-1.338-3-3-3z" style="fill:url(#linearGradient2436)"/>
		<path d="m42 0v2c1.108 0 2 0.446 2 1h1c0-1.662-1.338-3-3-3z" style="opacity:.125"/>
	</g>
	<g id="plain-bottomleft" class="ColorScheme-Text">
		<path d="m25 17c0 1.662 1.338 3 3 3v-3z" style="fill:url(#linearGradient2438)"/>
		<path d="m25 17c0 1.5822 1.2172 2.8565 2.7676 2.9766a2 3 0 0 1-1.7676-2.9766z" style="opacity:.125"/>
	</g>
	<g id="plain-bottomright" class="ColorScheme-Text">
		<path d="m42 17v3c1.662 0 3-1.338 3-3z" style="fill:url(#linearGradient2440)"/>
		<path d="m44 17a2 3 0 0 1-1.7773 2.9785c1.5552-0.11527 2.7773-1.3929 2.7773-2.9785z" style="opacity:.125"/>
	</g>
	<g id="plain-left" class="ColorScheme-Text">
		<path d="m25 3v14h3v-14z" style="fill:url(#linearGradient4566)"/>
		<rect x="25" y="3" width="1" height="14" style="opacity:.125"/>
	</g>
	<g id="plain-bottom" class="ColorScheme-Text">
		<path d="m28 17v3h14v-3z" style="fill:url(#linearGradient2442)"/>
	</g>
	<g id="plain-right" class="ColorScheme-Text">
		<path d="m42 3v14h3v-14z" style="fill:url(#linearGradient4570)"/>
		<rect x="44" y="3" width="1" height="14" style="opacity:.125"/>
	</g>
	<g id="plain-top" class="ColorScheme-Text">
		<path d="m28 0v3h14v-3z" style="fill:url(#linearGradient4508)"/>
		<rect x="28" width="14" height="2" style="opacity:.125"/>
	</g>
</svg>
